%YAML 1.1
%TAG !u! tag:unity3d.com,2011:
--- !u!1 &2082730999389422843
GameObject:
  m_ObjectHideFlags: 0
  m_CorrespondingSourceObject: {fileID: 0}
  m_PrefabInstance: {fileID: 0}
  m_PrefabAsset: {fileID: 0}
  serializedVersion: 6
  m_Component:
  - component: {fileID: 2082730999389422840}
  - component: {fileID: 2082730999389422841}
  m_Layer: 0
  m_Name: Itens
  m_TagString: Untagged
  m_Icon: {fileID: 0}
  m_NavMeshLayer: 0
  m_StaticEditorFlags: 0
  m_IsActive: 1
--- !u!4 &2082730999389422840
Transform:
  m_ObjectHideFlags: 0
  m_CorrespondingSourceObject: {fileID: 0}
  m_PrefabInstance: {fileID: 0}
  m_PrefabAsset: {fileID: 0}
  m_GameObject: {fileID: 2082730999389422843}
  m_LocalRotation: {x: 0, y: 0, z: 0, w: 1}
  m_LocalPosition: {x: 0, y: 0, z: 0}
  m_LocalScale: {x: 1, y: 1, z: 1}
  m_Children: []
  m_Father: {fileID: 2082731000507883954}
  m_RootOrder: 0
  m_LocalEulerAnglesHint: {x: 0, y: 0, z: 0}
--- !u!114 &2082730999389422841
MonoBehaviour:
  m_ObjectHideFlags: 0
  m_CorrespondingSourceObject: {fileID: 0}
  m_PrefabInstance: {fileID: 0}
  m_PrefabAsset: {fileID: 0}
  m_GameObject: {fileID: 2082730999389422843}
  m_Enabled: 1
  m_EditorHideFlags: 0
  m_Script: {fileID: 11500000, guid: 27303e3257d22554c99883789c624161, type: 3}
  m_Name: 
  m_EditorClassIdentifier: 
  itens:
  - nome: Machado
    nomeReal: Machado
    tipoItem: 0
    IDLocal: 0
    IDGeral: 0
    prefab: {fileID: 0}
    imagem: {fileID: 21300000, guid: adf283bda2757154c942aff316b6ab08, type: 3}
    quantidade: 0
    tipoMunicao: 0
    vitais:
      vida: 0
      energia: 0
      fome: 0
      sede: 0
  - nome: Agua
    nomeReal: "Garrafa de \xC1gua"
    tipoItem: 1
    IDLocal: 1
    IDGeral: 1
    prefab: {fileID: 0}
    imagem: {fileID: 21300000, guid: 714ba2d1951ee9c4bbe71470664a445a, type: 3}
    quantidade: 0
    tipoMunicao: 0
    vitais:
      vida: 5
      energia: 6
      fome: 4
      sede: 20
  - nome: MunicaoLeve
    nomeReal: "Caixa Muni\xE7\xE3o Leve Pequena"
    tipoItem: 2
    IDLocal: 2
    IDGeral: 2
    prefab: {fileID: 0}
    imagem: {fileID: 21300000, guid: e4fc9af94593a7a44983d3837faebd38, type: 3}
    quantidade: 30
    tipoMunicao: 0
    vitais:
      vida: 0
      energia: 0
      fome: 0
      sede: 0
  - nome: Madeira
    nomeReal: Madeira
    tipoItem: 3
    IDLocal: 3
    IDGeral: 3
    prefab: {fileID: 0}
    imagem: {fileID: 21300000, guid: 6f02f5ce9c8546b4db386eac337a8527, type: 3}
    quantidade: 0
    tipoMunicao: 0
    vitais:
      vida: 0
      energia: 0
      fome: 0
      sede: 0
  ferramentas:
  - nome: Machado
    nomeReal: Machado
    IDLocal: 0
    IDGeral: 0
    prefab: {fileID: 0}
    imagem: {fileID: 21300000, guid: d764b5002f811f44faddc016287fdc30, type: 3}
    dano: 0
  comestiveis:
  - nome: Agua
    nomeReal: "\xC1gua"
    IDLocal: 0
    IDGeral: 1
    prefab: {fileID: 0}
    imagem: {fileID: 21300000, guid: 31e41f78710fb8243a700e25039ef7f9, type: 3}
    vitais:
      vida: 50
      energia: 20
      fome: 20
      sede: 20
  recursos:
  - nome: MunicaoLeve
    nomeReal: "Muni\xE7\xE3o Leve Pequena"
    IDLocal: 0
    IDGeral: 2
    prefab: {fileID: 0}
    quantidade: 30
    imagem: {fileID: 21300000, guid: fc4493e1648a2eb46b94b68cfa484e20, type: 3}
  materiais:
  - nome: Madeira
    nomeReal: Madeira
    IDLocal: 0
    IDGeral: 3
    prefab: {fileID: 0}
    imagem: {fileID: 21300000, guid: 45be306549cdeb94cb4863a8c5e5ec7b, type: 3}
  vitais:
  - nome: Vida
    nomeReal: 
    ID: 0
    imagem: {fileID: 0}
  - nome: Energia
    nomeReal: 
    ID: 1
    imagem: {fileID: 0}
  - nome: Fome
    nomeReal: 
    ID: 2
    imagem: {fileID: 0}
  - nome: Sede
    nomeReal: 
    ID: 3
    imagem: {fileID: 0}
  construcoes: []
--- !u!1 &2082731000507883965
GameObject:
  m_ObjectHideFlags: 0
  m_CorrespondingSourceObject: {fileID: 0}
  m_PrefabInstance: {fileID: 0}
  m_PrefabAsset: {fileID: 0}
  serializedVersion: 6
  m_Component:
  - component: {fileID: 2082731000507883954}
  m_Layer: 0
  m_Name: Gerenciadores
  m_TagString: Untagged
  m_Icon: {fileID: 0}
  m_NavMeshLayer: 0
  m_StaticEditorFlags: 0
  m_IsActive: 1
--- !u!4 &2082731000507883954
Transform:
  m_ObjectHideFlags: 0
  m_CorrespondingSourceObject: {fileID: 0}
  m_PrefabInstance: {fileID: 0}
  m_PrefabAsset: {fileID: 0}
  m_GameObject: {fileID: 2082731000507883965}
  m_LocalRotation: {x: 0, y: 0, z: 0, w: 1}
  m_LocalPosition: {x: 0, y: 1.3199999, z: 0}
  m_LocalScale: {x: 1, y: 1, z: 1}
  m_Children:
  - {fileID: 2082730999389422840}
  m_Father: {fileID: 0}
  m_RootOrder: 0
  m_LocalEulerAnglesHint: {x: 0, y: 0, z: 0}
