# ProBuilder 4.0.5
# https://unity3d.com/unity/features/worldbuilding/probuilder
# 25/11/2019 09:19:35

mtllib ./Cadeira_02.mtl
o Cadeira_02

g Cadeira_02
v -0.5026031 -0.2567137 0.5310287
v -0.5026031 -0.2567137 -0.5043522
v -0.374881 -0.2567137 -0.5043522
v -0.374881 -0.2567137 0.5310287
v -0.3623138 -0.2692846 0.5310287
v -0.3623138 -0.2692846 -0.5043522
v -0.3623138 -0.355394 -0.5043522
v -0.3623138 -0.355394 0.5310287
v -0.374881 -0.3679649 0.5310287
v -0.374881 -0.3679649 -0.5043522
v -0.5026031 -0.3679649 -0.5043522
v -0.5026031 -0.3679649 0.5310287
v 0.3674408 -0.2567137 0.5310287
v 0.3674408 -0.2567137 -0.5043522
v 0.4951629 -0.2567137 -0.5043522
v 0.4951629 -0.2567137 0.5310287
v 0.5077361 -0.2692846 0.5310287
v 0.5077361 -0.2692846 -0.5043522
v 0.5077361 -0.355394 -0.5043522
v 0.5077361 -0.355394 0.5310287
v 0.4951629 -0.3679649 0.5310287
v 0.4951629 -0.3679649 -0.5043522
v 0.3674408 -0.3679649 -0.5043522
v 0.3674408 -0.3679649 0.5310287
v -0.5231659 -0.2567137 -0.5120914
v 0.5122162 -0.2567137 -0.5120914
v 0.5122162 -0.2567137 -0.3843696
v -0.5231659 -0.2567137 -0.3843696
v -0.5231659 -0.2692846 -0.3717987
v 0.5122162 -0.2692846 -0.3717987
v 0.5122162 -0.355394 -0.3717987
v -0.5231659 -0.355394 -0.3717987
v -0.5231659 -0.3679649 -0.3843696
v 0.5122162 -0.3679649 -0.3843696
v 0.5122162 -0.3679649 -0.5120914
v -0.5231659 -0.3679649 -0.5120914
v -0.5231659 -0.2567137 0.3904419
v 0.5122162 -0.2567137 0.3904419
v 0.5122162 -0.2567137 0.518164
v -0.5231659 -0.2567137 0.518164
v -0.5231659 -0.2692846 0.530735
v 0.5122162 -0.2692846 0.530735
v 0.5122162 -0.355394 0.530735
v -0.5231659 -0.355394 0.530735
v -0.5231659 -0.3679649 0.518164
v 0.5122162 -0.3679649 0.518164
v 0.5122162 -0.3679649 0.3904419
v -0.5231659 -0.3679649 0.3904419
v -0.5151764 -0.355394 0.5310287
v -0.5151764 -0.355394 -0.5043522
v -0.5151764 -0.2692846 -0.5043522
v -0.5151764 -0.2692846 0.5310287
v 0.3548736 -0.355394 0.5310287
v 0.3548736 -0.355394 -0.5043522
v 0.3548736 -0.2692846 -0.5043522
v 0.3548736 -0.2692846 0.5310287
v -0.5070465 -0.6540049 -0.5176284
v -0.5196197 -0.6414341 -0.5176284
v -0.5196197 -0.6414341 -0.3747543
v -0.5070465 -0.6540049 -0.3747543
v -0.3641693 -0.6540049 -0.5176284
v -0.3641693 -0.6540049 -0.3747543
v -0.3516021 -0.6414341 -0.5176284
v -0.3516021 -0.6414341 -0.3747543
v -0.5070465 -0.6414341 -0.5301994
v -0.3641693 -0.6414341 -0.5301994
v -0.3516021 0.4824315 -0.5176284
v -0.3641693 0.4824315 -0.5301994
v -0.5070465 0.4824315 -0.5301994
v -0.5196197 0.4824315 -0.5176284
v -0.5231659 -0.355394 -0.5246624
v 0.5122162 -0.355394 -0.5246624
v 0.5122162 -0.2692846 -0.5246624
v -0.5231659 -0.2692846 -0.5246624
v -0.5231659 -0.355394 0.3778709
v 0.5122162 -0.355394 0.3778709
v 0.5122162 -0.2692846 0.3778709
v -0.5231659 -0.2692846 0.3778709
v -0.5070465 -0.6540049 0.3837478
v -0.5196197 -0.6414341 0.3837478
v -0.5196197 -0.6414341 0.526622
v -0.5070465 -0.6540049 0.526622
v -0.3641693 -0.6540049 0.3837478
v -0.3641693 -0.6540049 0.526622
v -0.3516021 -0.6414341 0.3837478
v -0.3516021 -0.6414341 0.526622
v -0.5070465 -0.6414341 0.3711769
v -0.3641693 -0.6414341 0.3711769
v -0.3516021 0.4824315 0.3837478
v -0.3641693 0.4824315 0.3711769
v -0.5070465 0.4824315 0.3711769
v -0.5196197 0.4824315 0.3837478
v 0.3575714 -0.6540049 0.3837478
v 0.3449982 -0.6414341 0.3837478
v 0.3449982 -0.6414341 0.526622
v 0.3575714 -0.6540049 0.526622
v 0.5004486 -0.6540049 0.3837478
v 0.5004486 -0.6540049 0.526622
v 0.5130157 -0.6414341 0.3837478
v 0.5130157 -0.6414341 0.526622
v 0.3575714 -0.6414341 0.3711769
v 0.5004486 -0.6414341 0.3711769
v 0.5130157 0.4824315 0.3837478
v 0.5004486 0.4824315 0.3711769
v 0.3575714 0.4824315 0.3711769
v 0.3449982 0.4824315 0.3837478
v 0.3575714 -0.6540049 -0.5176284
v 0.3449982 -0.6414341 -0.5176284
v 0.3449982 -0.6414341 -0.3747543
v 0.3575714 -0.6540049 -0.3747543
v 0.5004486 -0.6540049 -0.5176284
v 0.5004486 -0.6540049 -0.3747543
v 0.5130157 -0.6414341 -0.5176284
v 0.5130157 -0.6414341 -0.3747543
v 0.3575714 -0.6414341 -0.5301994
v 0.5004486 -0.6414341 -0.5301994
v 0.5130157 0.4824315 -0.5176284
v 0.5004486 0.4824315 -0.5301994
v 0.3575714 0.4824315 -0.5301994
v 0.3449982 0.4824315 -0.5176284
v 0.6645904 0.5091082 -0.4718689
v 0.6645904 0.6174424 -0.4718689
v 0.6541412 0.5091082 -0.486251
v 0.6541412 0.6174424 -0.486251
v 0.2603058 0.5091082 -0.772388
v 0.2603058 0.6174424 -0.772388
v 0.6479278 0.6335921 -0.4823555
v 0.2585236 0.4929585 -0.7652755
v 0.6486602 0.4933207 -0.4822704
v 0.658963 0.4929586 -0.4671638
v 0.6363494 0.479349 -0.4739445
v 0.6469207 0.4789867 -0.4590293
v 0.6234283 0.4725457 -0.4639373
v 0.6338775 0.4725457 -0.4495544
v 0.2485748 0.4725457 -0.7362827
v 0.2535553 0.4789868 -0.7516128
v 0.2316681 0.4725457 -0.7417762
v 0.2362396 0.479349 -0.7574688
v 0.2413055 0.4933208 -0.7714404
v 0.243399 0.5091082 -0.7778816
v 0.243399 0.6174424 -0.7778816
v 0.2582123 0.6332299 -0.7659465
v 0.2540985 0.6472015 -0.7516658
v 0.6364654 0.6475638 -0.4734119
v 0.6234283 0.6540049 -0.4639373
v 0.2485748 0.6540049 -0.7362827
v 0.2406647 0.6335921 -0.7710781
v 0.2366485 0.6475638 -0.7571064
v 0.2316681 0.6540049 -0.7417762
v -0.2434051 0.5091082 -0.7778816
v -0.2406708 0.4929585 -0.7710781
v -0.2434051 0.6174424 -0.7778816
v -0.2582184 0.4933207 -0.7659465
v -0.2603119 0.5091082 -0.772388
v -0.2541046 0.479349 -0.7516658
v -0.2366547 0.4789868 -0.7571064
v -0.2485809 0.4725457 -0.7362827
v -0.2316742 0.4725457 -0.7417762
v -0.2413116 0.6332298 -0.7714404
v -0.2603119 0.6174424 -0.772388
v -0.2362457 0.6472016 -0.7574688
v -0.2316742 0.6540049 -0.7417762
v -0.2585296 0.6335921 -0.7652755
v -0.2535614 0.6475638 -0.7516128
v -0.2485809 0.6540049 -0.7362827
v -0.6541473 0.5091082 -0.486251
v -0.6479339 0.4929585 -0.4823555
v -0.6541473 0.6174424 -0.486251
v -0.6591156 0.4933208 -0.4678878
v -0.6645965 0.5091082 -0.4718689
v -0.6473907 0.4793489 -0.4587532
v -0.6364715 0.4789868 -0.4734119
v -0.6338837 0.4725457 -0.4495544
v -0.6234344 0.4725457 -0.4639373
v -0.6486663 0.6332298 -0.4822704
v -0.6645965 0.6174424 -0.4718689
v -0.6363556 0.6472016 -0.4739445
v -0.6234344 0.6540049 -0.4639373
v -0.6589691 0.633592 -0.4671638
v -0.6469207 0.6475639 -0.4590293
v -0.6338837 0.6540049 -0.4495544
v -0.8150238 0.5091082 -0.008889007
v -0.8077117 0.4929585 -0.009388733
v -0.8150238 0.6174424 -0.008889007
v -0.808255 0.4933207 0.008889007
v -0.8150238 0.5091082 0.008889007
v -0.793399 0.4793491 0.009388733
v -0.7931854 0.4789868 -0.008889007
v -0.777066 0.4725457 0.008889007
v -0.777066 0.4725457 -0.008889007
v -0.808255 0.6332299 -0.008889007
v -0.8150238 0.6174424 0.008889007
v -0.793399 0.6472015 -0.009388733
v -0.777066 0.6540049 -0.008889007
v -0.8077117 0.6335921 0.009388733
v -0.7931854 0.6475637 0.008889007
v -0.777066 0.6540049 0.008889007
v -0.6645965 0.5091082 0.4718689
v -0.6589691 0.4929586 0.4671646
v -0.6645965 0.6174424 0.4718689
v -0.6486663 0.4933208 0.4822708
v -0.6541473 0.5091082 0.4862518
v -0.6363556 0.4793489 0.4739448
v -0.6469207 0.4789867 0.4590293
v -0.6234344 0.4725457 0.4639373
v -0.6338837 0.4725457 0.4495544
v -0.6591156 0.6332298 0.4678878
v -0.6541473 0.6174424 0.4862518
v -0.6473907 0.6472017 0.4587532
v -0.6338837 0.6540049 0.4495544
v -0.6479339 0.633592 0.4823562
v -0.6364715 0.6475639 0.4734115
v -0.6234344 0.6540049 0.4639373
v -0.2603119 0.5091082 0.7723876
v -0.2585296 0.4929585 0.7652755
v -0.2603119 0.6174424 0.7723876
v -0.2413116 0.4933208 0.7714401
v -0.2434051 0.5091082 0.7778816
v -0.2362457 0.479349 0.7574683
v -0.2535614 0.4789868 0.7516128
v -0.2316742 0.4725457 0.7417762
v -0.2485809 0.4725457 0.7362823
v -0.2582184 0.6332299 0.7659469
v -0.2434051 0.6174424 0.7778816
v -0.2541046 0.6472015 0.7516662
v -0.2485809 0.6540049 0.7362823
v -0.2406708 0.6335921 0.7710785
v -0.2366547 0.6475638 0.7571067
v -0.2316742 0.6540049 0.7417762
v 0.243399 0.5091082 0.7778816
v 0.2406647 0.4929585 0.7710785
v 0.243399 0.6174424 0.7778816
v 0.2582184 0.4933207 0.7659469
v 0.2603058 0.5091082 0.7723876
v 0.2541046 0.479349 0.7516662
v 0.2366485 0.4789868 0.7571067
v 0.2485809 0.4725457 0.7362823
v 0.2316681 0.4725457 0.7417762
v 0.2413055 0.6332298 0.7714401
v 0.2603058 0.6174424 0.7723876
v 0.2362457 0.6472016 0.7574683
v 0.2316681 0.6540049 0.7417762
v 0.2585236 0.6335921 0.7652755
v 0.2535614 0.6475638 0.7516128
v 0.2485809 0.6540049 0.7362823
v 0.6541412 0.5091082 0.4862518
v 0.6479278 0.4929586 0.4823562
v 0.6541412 0.6174424 0.4862518
v 0.6591095 0.4933208 0.4678878
v 0.6645904 0.5091082 0.4718689
v 0.6473907 0.4793489 0.4587532
v 0.6364654 0.4789867 0.4734115
v 0.6338775 0.4725457 0.4495544
v 0.6234283 0.4725457 0.4639373
v 0.6486602 0.6332298 0.4822708
v 0.6645904 0.6174424 0.4718689
v 0.6363494 0.6472016 0.4739448
v 0.6234283 0.6540049 0.4639373
v 0.658963 0.633592 0.4671646
v 0.6469207 0.6475639 0.4590293
v 0.6338775 0.6540049 0.4495544
v 0.8150238 0.5091082 0.008889007
v 0.8077056 0.4929585 0.009388733
v 0.7931793 0.4789868 0.008889007
v 0.7770599 0.4725457 0.008889007
v 0.8150238 0.6174424 0.008889007
v 0.8082489 0.6332299 0.008889007
v 0.793399 0.6472015 0.009388733
v 0.7770599 0.6540049 0.008889007
v 0.8150238 0.5091082 -0.008889007
v 0.8150238 0.6174424 -0.008889007
v 0.8082489 0.4933207 -0.008889007
v 0.793399 0.4793491 -0.009388733
v 0.7770599 0.4725457 -0.008889007
v 0.8077056 0.6335921 -0.009388733
v 0.6591095 0.6332298 -0.4678878
v 0.6473907 0.6472017 -0.4587532
v 0.7931793 0.6475637 -0.008889007
v 0.7770599 0.6540049 -0.008889007
v 0.6338775 0.6540049 -0.4495544
v -0.3516021 0.4824315 -0.3747543
v -0.3641693 0.4824315 -0.3621834
v -0.3641693 -0.6414341 -0.3621834
v -0.5070465 0.4824315 -0.3621834
v -0.5070465 -0.6414341 -0.3621834
v -0.5196197 0.4824315 -0.3747543
v -0.3516021 0.4824315 0.526622
v -0.3641693 0.4824315 0.5391929
v -0.3641693 -0.6414341 0.5391929
v -0.5070465 0.4824315 0.5391929
v -0.5070465 -0.6414341 0.5391929
v -0.5196197 0.4824315 0.526622
v 0.5130157 0.4824315 0.526622
v 0.5004486 0.4824315 0.5391929
v 0.5004486 -0.6414341 0.5391929
v 0.3575714 0.4824315 0.5391929
v 0.3575714 -0.6414341 0.5391929
v 0.3449982 0.4824315 0.526622
v 0.5130157 0.4824315 -0.3747543
v 0.5004486 0.4824315 -0.3621834
v 0.5004486 -0.6414341 -0.3621834
v 0.3575714 0.4824315 -0.3621834
v 0.3575714 -0.6414341 -0.3621834
v 0.3449982 0.4824315 -0.3747543
v 0.01690369 0.4725457 -0.02327194
v 0.0273529 0.4725457 -0.008889007
v -3.051758E-06 0.4725457 -0.0287651
v 0.0273529 0.4725457 0.008889007
v -0.01690979 0.4725457 -0.02327194
v 0.01690369 0.4725457 0.02327194
v -0.02735901 0.4725457 -0.008889007
v -3.051758E-06 0.4725457 0.0287651
v -0.02735901 0.4725457 0.008889007
v -0.01690979 0.4725457 0.02327194
v 0.0273529 0.6540049 -0.008889007
v 0.01690369 0.6540049 -0.02327194
v 0.0273529 0.6540049 0.008889007
v -3.051758E-06 0.6540049 -0.0287651
v -0.01690979 0.6540049 -0.02327194
v -0.02735901 0.6540049 -0.008889007
v -0.02735901 0.6540049 0.008889007
v -0.01690979 0.6540049 0.02327194
v -3.051758E-06 0.6540049 0.0287651
v 0.01690369 0.6540049 0.02327194

vt 0.854442 0.25
vt 0.8544422 3.72529E-09
vt 0.6455587 -3.72529E-09
vt 0.645558 0.25
vt 0.5967511 0.25
vt 0.5967532 1.862645E-09
vt 0.4032486 -5.587935E-09
vt 0.4032489 0.25
vt 0.354442 0.25
vt 0.3544422 3.72529E-09
vt 0.1455587 -3.72529E-09
vt 0.145558 0.25
vt 0.375 0.5
vt 0.375 0.75
vt 0.4032486 0.5
vt 0.4032489 0.75
vt 0.5967511 0.7499999
vt 0.5967532 0.5
vt 0.625 0.5
vt 0.625 0.75
vt 0.3937037 0.768705
vt 0.375 0.768705
vt 0.375 0.981295
vt 0.3937037 0.981295
vt 0.6062963 0.768705
vt 0.6062963 0.981295
vt 0.625 0.768705
vt 0.625 0.981295
vt 0.3937037 0.7472346
vt 0.375 0.7472346
vt 0.6062963 0.7472346
vt 0.625 0.7472346
vt 0.6062957 0.5
vt 0.393703 0.5
vt 0.375 0.3879635
vt 0.375 0.6090978
vt 0.3754622 0.3882489
vt 0.3754622 0.612691
vt 0.3995378 0.3882488
vt 0.3995378 0.612691
vt 0.3755972 0.6461494
vt 0.3994024 0.3547911
vt 0.3755654 0.3555411
vt 0.375 0.3688853
vt 0.3751532 0.349129
vt 0.3758158 0.3265952
vt 0.3753718 0.3209545
vt 0.37588 0.3135161
vt 0.3754374 0.3125
vt 0.3991039 0.3125
vt 0.3992039 0.3258447
vt 0.3995626 0.3125
vt 0.3996242 0.3204394
vt 0.3998474 0.3492135
vt 0.4 0.3688853
vt 0.4004622 0.3882489
vt 0.4004622 0.612691
vt 0.3994342 0.6453991
vt 0.3991837 0.6743448
vt 0.3757958 0.6750938
vt 0.3758962 0.6884398
vt 0.39912 0.6874238
vt 0.3998468 0.6518106
vt 0.3996282 0.6799849
vt 0.3995626 0.6884398
vt 0.4245378 0.3882488
vt 0.4244025 0.3547902
vt 0.4005654 0.3555404
vt 0.4008157 0.3265959
vt 0.4245378 0.612691
vt 0.4005976 0.6461511
vt 0.4248475 0.3492136
vt 0.425 0.3688853
vt 0.4246243 0.3204387
vt 0.4254622 0.3882488
vt 0.4242039 0.3258443
vt 0.4245627 0.3125
vt 0.4241039 0.3125
vt 0.4008799 0.3135161
vt 0.4244343 0.6453989
vt 0.4254622 0.612691
vt 0.4241838 0.6743448
vt 0.4007962 0.6750959
vt 0.4008962 0.6884398
vt 0.4241201 0.6874238
vt 0.4248468 0.6518111
vt 0.4246283 0.6799843
vt 0.4245627 0.6884398
vt 0.4495378 0.3882489
vt 0.4494025 0.3547904
vt 0.4255659 0.3555411
vt 0.4258166 0.326597
vt 0.4495378 0.6126909
vt 0.4255972 0.6461479
vt 0.4498474 0.3492142
vt 0.45 0.3688853
vt 0.4496242 0.3204387
vt 0.4504623 0.3882489
vt 0.4492039 0.3258439
vt 0.4495626 0.3125
vt 0.4491039 0.3125
vt 0.42588 0.3135161
vt 0.4494343 0.6453985
vt 0.4504623 0.612691
vt 0.4491837 0.6743448
vt 0.4257963 0.6750953
vt 0.4258959 0.6884398
vt 0.44912 0.6874238
vt 0.4498468 0.6518113
vt 0.4496282 0.6799845
vt 0.4495626 0.6884398
vt 0.4745378 0.3882489
vt 0.4744025 0.354791
vt 0.4505658 0.3555413
vt 0.4508166 0.3265941
vt 0.4745378 0.612691
vt 0.4505976 0.6461511
vt 0.4748474 0.3492143
vt 0.475 0.3688853
vt 0.4746242 0.3204388
vt 0.4754623 0.3882489
vt 0.4742039 0.3258454
vt 0.4745627 0.3125
vt 0.4741039 0.3125
vt 0.4508799 0.3135161
vt 0.4744343 0.6453984
vt 0.4754622 0.612691
vt 0.4741838 0.6743445
vt 0.4507962 0.675095
vt 0.4508962 0.6884398
vt 0.4741201 0.6874238
vt 0.4748468 0.6518112
vt 0.4746282 0.679984
vt 0.4745627 0.6884398
vt 0.4995378 0.3882489
vt 0.4994025 0.3547897
vt 0.4755655 0.3555402
vt 0.4758162 0.3265952
vt 0.4995378 0.612691
vt 0.4755972 0.6461479
vt 0.4998474 0.3492146
vt 0.5 0.3688853
vt 0.4996243 0.3204389
vt 0.5004622 0.3882488
vt 0.499204 0.3258451
vt 0.4995627 0.3125
vt 0.499104 0.3125
vt 0.4758796 0.3135153
vt 0.4994342 0.6453987
vt 0.5004622 0.612691
vt 0.4991837 0.6743453
vt 0.4757958 0.6750942
vt 0.4758959 0.6884398
vt 0.4991201 0.6874238
vt 0.4998468 0.6518115
vt 0.4996282 0.6799858
vt 0.4995627 0.6884398
vt 0.5245378 0.3882489
vt 0.5244024 0.3547911
vt 0.5005658 0.3555424
vt 0.5008166 0.3265966
vt 0.5245377 0.612691
vt 0.5005976 0.6461484
vt 0.5248474 0.3492131
vt 0.525 0.3688853
vt 0.5246242 0.3204392
vt 0.5254622 0.3882489
vt 0.5242039 0.3258447
vt 0.5245626 0.3125
vt 0.5241038 0.3125
vt 0.5008796 0.3135153
vt 0.5244342 0.6453987
vt 0.5254622 0.612691
vt 0.5241837 0.6743443
vt 0.5007963 0.6750967
vt 0.5008963 0.6884398
vt 0.52412 0.6874238
vt 0.5248467 0.6518105
vt 0.5246282 0.6799844
vt 0.5245626 0.6884398
vt 0.5495377 0.3882488
vt 0.5494024 0.3547909
vt 0.5255654 0.3555395
vt 0.5258157 0.326595
vt 0.5495377 0.612691
vt 0.5255976 0.6461501
vt 0.5498474 0.3492138
vt 0.55 0.3688853
vt 0.5496242 0.3204392
vt 0.5504621 0.3882488
vt 0.5492039 0.3258449
vt 0.5495626 0.3125
vt 0.5491039 0.3125
vt 0.5258799 0.3135161
vt 0.5494342 0.6453995
vt 0.5504621 0.612691
vt 0.5491837 0.6743454
vt 0.5257958 0.675095
vt 0.5258962 0.6884398
vt 0.5491201 0.6874238
vt 0.5498467 0.6518111
vt 0.5496282 0.6799847
vt 0.5495626 0.6884398
vt 0.5745378 0.3882489
vt 0.5744023 0.354791
vt 0.5505658 0.3555404
vt 0.5508165 0.3265968
vt 0.5745378 0.6126909
vt 0.5505971 0.6461479
vt 0.5748473 0.3492139
vt 0.5749999 0.3688853
vt 0.5746241 0.3204386
vt 0.5754622 0.3882489
vt 0.5742038 0.3258433
vt 0.5745625 0.3125
vt 0.5741038 0.3125
vt 0.55088 0.3135161
vt 0.5744342 0.6453983
vt 0.5754622 0.612691
vt 0.5741836 0.6743445
vt 0.5507962 0.6750953
vt 0.5508959 0.6884398
vt 0.5741199 0.6874238
vt 0.5748467 0.6518108
vt 0.5746281 0.6799846
vt 0.5745625 0.6884398
vt 0.5995377 0.3882488
vt 0.5994024 0.354791
vt 0.5755658 0.3555406
vt 0.5758165 0.3265947
vt 0.5992038 0.3258454
vt 0.5991038 0.3125
vt 0.5758802 0.3135168
vt 0.5995377 0.612691
vt 0.5755971 0.6461501
vt 0.5994341 0.6453984
vt 0.5991837 0.6743445
vt 0.5757953 0.6750939
vt 0.5758961 0.6884398
vt 0.59912 0.6874238
vt 0.6004621 0.3882488
vt 0.6004621 0.612691
vt 0.6005656 0.3555414
vt 0.6001531 0.3491287
vt 0.6008161 0.3265954
vt 0.6003717 0.3209559
vt 0.6244023 0.3547888
vt 0.6245376 0.3882489
vt 0.6242037 0.3258449
vt 0.6241037 0.3125
vt 0.6008798 0.313516
vt 0.6004372 0.3125
vt 0.6245376 0.612691
vt 0.6005974 0.6461489
vt 0.6001525 0.6517256
vt 0.5999999 0.6320545
vt 0.6003757 0.6805011
vt 0.6244341 0.6453986
vt 0.6249999 0.6320545
vt 0.6248466 0.6518123
vt 0.6241834 0.6743458
vt 0.6246281 0.6799867
vt 0.6007959 0.6750944
vt 0.6004372 0.6884398
vt 0.6008959 0.6884398
vt 0.6241199 0.6874238
vt 0.6245626 0.6884398
vt 0.643705 0.25
vt 0.856295 0.25
vt 0.8562966 0.00276432
vt 0.6437061 0.002764327
vt 0.6062964 0.25
vt 0.606297 0.002764273
vt 0.6062957 -5.587935E-09
vt 0.3937037 0.25
vt 0.393703 7.450581E-09
vt 0.3937043 0.002764264
vt 0.356295 0.25
vt 0.3562966 0.00276432
vt 0.143705 0.25
vt 0.1437061 0.002764327
vt 0.619097 0.06733168
vt 0.5032301 0.1457854
vt 0.6210932 0.07007931
vt 0.5474874 0.01530417
vt 0.5052263 0.148533
vt 0.6484461 0.1542618
vt 0.6484461 0.157658
vt 0.5 0.144736
vt 0.5052263 0.1519292
vt 0.5442573 0.01425469
vt 0.6210932 0.2418405
vt 0.4557425 0.01425471
vt 0.619097 0.2445881
vt 0.4967699 0.1457854
vt 0.4525124 0.01530414
vt 0.380903 0.06733169
vt 0.5032301 0.1546769
vt 0.5474876 0.2966157
vt 0.5442575 0.2976651
vt 0.4947737 0.148533
vt 0.3789068 0.07007933
vt 0.3515539 0.1542618
vt 0.5 0.1557263
vt 0.4557427 0.2976651
vt 0.4525126 0.2966156
vt 0.4947737 0.1519292
vt 0.3515539 0.157658
vt 0.3789068 0.2418404
vt 0.4967699 0.1546769
vt 0.380903 0.2445881
vt 0.6210932 0.9293405
vt 0.5052263 0.8394291
vt 0.619097 0.9320881
vt 0.6484461 0.845158
vt 0.5032301 0.8421769
vt 0.5474874 0.9841157
vt 0.5442573 0.9851651
vt 0.5052263 0.8360329
vt 0.6484461 0.8417618
vt 0.6210932 0.7575793
vt 0.5 0.8432263
vt 0.4557425 0.9851651
vt 0.4525124 0.9841157
vt 0.4967699 0.8421769
vt 0.380903 0.9320881
vt 0.3789068 0.9293405
vt 0.4947737 0.8394291
vt 0.3515539 0.845158
vt 0.3515539 0.8417618
vt 0.4947737 0.8360329
vt 0.3789068 0.7575793
vt 0.380903 0.7548317
vt 0.4967699 0.8332854
vt 0.4525126 0.7028043
vt 0.4557426 0.7017547
vt 0.5 0.8322359
vt 0.5442575 0.7017547
vt 0.5474876 0.7028041
vt 0.50323 0.8332853
vt 0.619097 0.7548317

vn -0.3826407 0.9238973 0
vn 0.3827524 0.9238509 0
vn 0.9239081 0.3826144 0
vn 0.9239081 -0.3826144 0
vn 0.3827524 -0.9238509 0
vn -0.3826407 -0.9238973 0
vn 0 0.92388 -0.3826823
vn 0 0.9238797 0.3826829
vn 0 0.382684 0.9238793
vn 0 -0.382684 0.9238793
vn 0 -0.9238797 0.3826829
vn 0 -0.92388 -0.3826823
vn -0.9238618 -0.3827261 0
vn -0.9238618 0.3827261 0
vn -0.366956 -0.8547816 -0.3670039
vn -0.8547298 -0.3670414 -0.3670389
vn -0.8547295 -0.3670414 0.3670395
vn -0.3669559 -0.8547813 0.3670044
vn 0.3670715 -0.8547375 -0.3669908
vn 0.3670714 -0.8547373 0.3669913
vn 0.8548178 -0.366939 -0.3669365
vn 0.8548176 -0.3669389 0.366937
vn -0.3669577 -0.3670081 -0.8547789
vn 0.3670732 -0.3669951 -0.854735
vn 0.9239086 0 -0.3826133
vn 0.3827535 0 -0.9238505
vn -0.3826418 0 -0.9238967
vn -0.9238623 0 -0.382725
vn 0 -0.3826845 -0.9238791
vn 0 0.3826845 -0.9238791
vn 0.8734062 -0.2044171 -0.4420128
vn 0.8729939 0.2006606 -0.4445412
vn 0.6925564 -0.200626 -0.6929032
vn 0.6902889 0.2043779 -0.6940684
vn 0.4467948 -0.2043336 -0.8709893
vn 0.4449807 0.2006274 -0.8727776
vn 0.5758281 0.5718775 -0.5842757
vn 0.3777261 -0.5718676 -0.7282104
vn 0.5824866 -0.57054 -0.578959
vn 0.733622 -0.5718722 -0.3670978
vn 0.3847116 -0.8360932 -0.3910819
vn 0.4858254 -0.8375242 -0.2500537
vn 0.1365626 -0.9806656 -0.1401625
vn 0.1717672 -0.9813331 -0.08649401
vn 0.08813592 -0.981327 -0.1709659
vn 0.2460735 -0.837572 -0.4877715
vn 0.02810698 -0.9806673 -0.1936533
vn 0.0813882 -0.8361111 -0.5424888
vn 0.1309123 -0.5705 -0.810797
vn 0.1530182 -0.2006174 -0.9676456
vn 0.1504983 0.2043631 -0.967257
vn 0.3706647 0.5705099 -0.7328889
vn 0.2530323 0.8361064 -0.4867246
vn 0.3878293 0.8375636 -0.3848059
vn 0.1353764 0.9813241 -0.1366605
vn 0.09109314 0.9806662 -0.1731935
vn 0.1224504 0.5718675 -0.8111556
vn 0.08763696 0.8375615 -0.5392684
vn 0.02918934 0.9813283 -0.1901123
vn -0.1504983 -0.2043629 -0.967257
vn -0.1224505 -0.571867 -0.811156
vn -0.1530181 0.2006175 -0.9676456
vn -0.3706659 -0.5705079 -0.7328898
vn -0.4449805 -0.2006278 -0.8727777
vn -0.2530304 -0.8361071 -0.4867243
vn -0.08763494 -0.8375621 -0.5392679
vn -0.09109141 -0.9806666 -0.1731919
vn -0.02918934 -0.9813283 -0.1901123
vn -0.1309127 0.5705001 -0.8107969
vn -0.4467947 0.2043341 -0.8709891
vn -0.08138838 0.836111 -0.5424891
vn -0.02810698 0.9806673 -0.1936534
vn -0.3777266 0.5718676 -0.7282102
vn -0.2460738 0.8375716 -0.487772
vn -0.08813594 0.981327 -0.170966
vn -0.6902896 -0.2043784 -0.6940675
vn -0.575835 -0.5718961 -0.5842506
vn -0.692557 0.2006278 -0.692902
vn -0.7306244 -0.5705589 -0.3750341
vn -0.8730045 -0.2006231 -0.4445374
vn -0.4908027 -0.8361019 -0.2450433
vn -0.3878777 -0.83756 -0.384765
vn -0.1755234 -0.9806602 -0.08658591
vn -0.1353763 -0.9813242 -0.1366601
vn -0.582486 0.5705389 -0.5789606
vn -0.8734092 0.2044164 -0.4420072
vn -0.3847289 0.8361079 -0.3910338
vn -0.1365815 0.9806634 -0.1401601
vn -0.7336158 0.5718983 -0.3670698
vn -0.4858238 0.8375461 -0.2499835
vn -0.1718206 0.9813216 -0.08652002
vn -0.9664421 -0.2042627 -0.1557766
vn -0.8093263 -0.5718215 -0.1342053
vn -0.9675835 0.2005551 -0.1534918
vn -0.8115944 -0.5704636 0.126039
vn -0.9675838 -0.2005538 0.1534919
vn -0.5411111 -0.8360907 0.09028289
vn -0.5399973 -0.8375396 -0.08324946
vn -0.1928964 -0.9806595 0.03313337
vn -0.1898344 -0.9813269 -0.0309919
vn -0.8115939 0.5704644 -0.1260384
vn -0.966442 0.2042628 0.1557768
vn -0.5411118 0.8360905 -0.09028131
vn -0.1928977 0.9806593 -0.03313291
vn -0.8093255 0.5718224 0.1342063
vn -0.5399981 0.8375389 0.08325101
vn -0.1898365 0.9813265 0.03099206
vn -0.8734138 -0.204412 0.4420001
vn -0.7336171 -0.5718945 0.367073
vn -0.8730102 0.2006228 0.4445263
vn -0.5824853 -0.5705404 0.5789599
vn -0.6925647 -0.2006311 0.6928934
vn -0.3847264 -0.8361113 0.3910288
vn -0.4858206 -0.8375497 0.2499776
vn -0.1365792 -0.9806642 0.1401563
vn -0.1718199 -0.9813217 0.08651967
vn -0.7306289 0.5705581 0.3750264
vn -0.6902974 0.20438 0.6940594
vn -0.4908013 0.8361031 0.2450422
vn -0.1755228 0.9806603 0.08658611
vn -0.5758376 0.571899 0.5842453
vn -0.3878706 0.8375654 0.3847604
vn -0.1353763 0.9813243 0.13666
vn -0.4468001 -0.2043291 0.8709875
vn -0.37772 -0.5718639 0.7282165
vn -0.4449905 0.2006125 0.872776
vn -0.1309102 -0.5705044 0.8107942
vn -0.1530286 -0.200622 0.9676431
vn -0.08138368 -0.8361098 0.5424916
vn -0.2460688 -0.8375731 0.4877719
vn -0.02810699 -0.9806669 0.1936557
vn -0.08813585 -0.9813278 0.1709614
vn -0.370671 0.5704966 0.732896
vn -0.1505069 0.2043501 0.9672583
vn -0.253029 0.8361115 0.4867175
vn -0.09109129 0.9806673 0.1731878
vn -0.1224505 0.5718639 0.8111582
vn -0.08763681 0.8375648 0.5392633
vn -0.02919072 0.9813287 0.1901102
vn 0.1504973 -0.2043367 0.9672627
vn 0.122411 -0.5718602 0.8111668
vn 0.1530287 0.2006221 0.967643
vn 0.3706669 -0.5704458 0.7329376
vn 0.4449959 -0.2005632 0.8727846
vn 0.2530013 -0.8361148 0.4867262
vn 0.08760637 -0.8375635 0.5392703
vn 0.09108013 -0.9806681 0.1731892
vn 0.02918116 -0.9813284 0.1901132
vn 0.1309144 0.5704912 0.8108028
vn 0.4468002 0.2043291 0.8709875
vn 0.08138549 0.8361059 0.5424973
vn 0.02810077 0.9806676 0.193653
vn 0.3777295 0.5718376 0.7282323
vn 0.2460851 0.8375496 0.487804
vn 0.0881273 0.981328 0.1709646
vn 0.6902968 -0.2043793 0.6940602
vn 0.5758421 -0.5718592 0.5842797
vn 0.692564 0.2006302 0.6928945
vn 0.7306758 -0.5704819 0.3750511
vn 0.8729997 -0.2006601 0.44453
vn 0.4907767 -0.8361061 0.2450812
vn 0.3878246 -0.8375694 0.3847982
vn 0.1754733 -0.9806698 0.0865785
vn 0.1353758 -0.9813246 0.1366582
vn 0.5824847 0.5705419 0.5789589
vn 0.8734106 0.204413 0.4420059
vn 0.384719 0.8360868 0.3910885
vn 0.1365623 0.9806661 0.1401598
vn 0.7336224 0.5718694 0.3671017
vn 0.4858226 0.8375274 0.2500485
vn 0.171768 0.981333 0.08649436
vn 0.9664096 -0.2044166 0.1557766
vn 0.8092855 -0.5718735 0.1342299
vn 0.5399793 -0.837544 0.0833206
vn 0.1898185 -0.9813301 0.03098626
vn 0.9675584 0.2006738 0.1534951
vn 0.8115625 0.5705102 0.126033
vn 0.5411224 0.8360899 0.09022342
vn 0.1928508 0.9806694 0.03310687
vn 0.967558 -0.2006755 -0.1534951
vn 0.9664095 0.2044168 -0.1557768
vn 0.811563 -0.5705094 -0.126034
vn 0.5411234 -0.836089 -0.09022559
vn 0.1928494 -0.9806697 -0.03310731
vn 0.8092847 0.5718744 -0.1342308
vn 0.7306716 0.5704819 -0.3750593
vn 0.4907773 0.8361051 -0.2450835
vn 0.5399802 0.8375434 -0.08332215
vn 0.1898207 0.9813297 -0.03098641
vn 0.1754727 0.9806699 -0.08657841
vn 0.9239084 0 0.3826139
vn 0.382753 0 0.9238507
vn 0.3670727 -0.3669946 0.8547354
vn -0.3826413 0 0.923897
vn -0.3669572 -0.3670077 0.8547794
vn -0.9238621 0 0.3827256
vn 0 -1 0
vn 0 1 0

g Cadeira_02
usemtl marrom
f 65/29/23 57/21/15 58/30/16
f 66/31/24 63/32/21 61/25/19
f 87/29/23 79/21/15 80/30/16
f 88/31/24 85/32/21 83/25/19
f 101/29/23 93/21/15 94/30/16
f 102/31/24 99/32/21 97/25/19
f 115/29/23 107/21/15 108/30/16
f 116/31/24 113/32/21 111/25/19
f 283/273/193 62/274/20 64/271/22
f 285/277/195 59/279/17 60/276/18
f 289/273/193 84/274/20 86/271/22
f 291/277/195 81/279/17 82/276/18
f 295/273/193 98/274/20 100/271/22
f 297/277/195 95/279/17 96/276/18
f 301/273/193 112/274/20 114/271/22
f 303/277/195 109/279/17 110/276/18
f 133/282/43 305/283/197 135/285/45
f 274/287/184 306/286/197 134/284/44
f 305/283/197 306/286/197 307/289/197
f 253/292/163 308/290/197 265/288/175
f 137/291/47 307/289/197 158/293/68
f 307/289/197 306/286/197 309/295/197
f 157/296/67 309/295/197 174/297/84
f 310/298/197 306/286/197 308/290/197
f 237/299/147 310/298/197 254/294/164
f 309/295/197 306/286/197 311/301/197
f 173/302/83 311/301/197 190/303/100
f 312/304/197 306/286/197 310/298/197
f 221/305/131 312/304/197 238/300/148
f 189/308/99 313/307/197 206/309/116
f 314/310/197 306/286/197 312/304/197
f 205/311/115 314/310/197 222/306/132
f 280/312/190 315/313/198 279/315/189
f 146/317/56 316/316/198 145/314/55
f 316/316/198 317/319/198 315/313/198
f 269/320/179 317/319/198 261/321/171
f 318/322/198 317/319/198 316/316/198
f 162/323/72 318/322/198 149/318/59
f 319/325/198 317/319/198 318/322/198
f 178/326/88 319/325/198 165/324/75
f 194/329/104 320/328/198 181/327/91
f 210/332/120 321/331/198 197/330/107
f 322/334/198 317/319/198 321/331/198
f 226/335/136 322/334/198 213/333/123
f 242/338/152 323/337/198 229/336/139
f 258/341/168 324/340/198 245/339/155
f 3/3/2 2/2/1 1/1/1
f 1/1/1 4/4/2 3/3/2
f 3/3/2 4/4/2 5/5/3
f 5/5/3 6/6/3 3/3/2
f 7/7/4 6/6/3 5/5/3
f 5/5/3 8/8/4 7/7/4
f 7/7/4 8/8/4 9/9/5
f 9/9/5 10/10/5 7/7/4
f 11/11/6 10/10/5 9/9/5
f 9/9/5 12/12/6 11/11/6
f 15/3/2 14/2/1 13/1/1
f 13/1/1 16/4/2 15/3/2
f 15/3/2 16/4/2 17/5/3
f 17/5/3 18/6/3 15/3/2
f 19/7/4 18/6/3 17/5/3
f 17/5/3 20/8/4 19/7/4
f 19/7/4 20/8/4 21/9/5
f 21/9/5 22/10/5 19/7/4
f 23/11/6 22/10/5 21/9/5
f 21/9/5 24/12/6 23/11/6
f 27/3/8 26/2/7 25/1/7
f 25/1/7 28/4/8 27/3/8
f 27/3/8 28/4/8 29/5/9
f 29/5/9 30/6/9 27/3/8
f 31/7/10 30/6/9 29/5/9
f 29/5/9 32/8/10 31/7/10
f 31/7/10 32/8/10 33/9/11
f 33/9/11 34/10/11 31/7/10
f 35/11/12 34/10/11 33/9/11
f 33/9/11 36/12/12 35/11/12
f 39/3/8 38/2/7 37/1/7
f 37/1/7 40/4/8 39/3/8
f 39/3/8 40/4/8 41/5/9
f 41/5/9 42/6/9 39/3/8
f 43/7/10 42/6/9 41/5/9
f 41/5/9 44/8/10 43/7/10
f 43/7/10 44/8/10 45/9/11
f 45/9/11 46/10/11 43/7/10
f 47/11/12 46/10/11 45/9/11
f 45/9/11 48/12/12 47/11/12
f 50/16/13 11/14/6 12/13/6
f 12/13/6 49/15/13 50/16/13
f 52/18/14 51/17/14 50/16/13
f 50/16/13 49/15/13 52/18/14
f 2/20/1 51/17/14 52/18/14
f 52/18/14 1/19/1 2/20/1
f 54/16/13 23/14/6 24/13/6
f 24/13/6 53/15/13 54/16/13
f 56/18/14 55/17/14 54/16/13
f 54/16/13 53/15/13 56/18/14
f 14/20/1 55/17/14 56/18/14
f 56/18/14 13/19/1 14/20/1
f 59/23/17 58/22/16 57/21/15
f 57/21/15 60/24/18 59/23/17
f 62/26/20 60/24/18 57/21/15
f 57/21/15 61/25/19 62/26/20
f 62/26/20 61/25/19 63/27/21
f 63/27/21 64/28/22 62/26/20
f 66/31/24 61/25/19 57/21/15
f 57/21/15 65/29/23 66/31/24
f 68/33/26 67/19/25 63/32/21
f 63/32/21 66/31/24 68/33/26
f 69/34/27 68/33/26 66/31/24
f 66/31/24 65/29/23 69/34/27
f 70/13/28 69/34/27 65/29/23
f 65/29/23 58/30/16 70/13/28
f 72/16/29 35/14/12 36/13/12
f 36/13/12 71/15/29 72/16/29
f 74/18/30 73/17/30 72/16/29
f 72/16/29 71/15/29 74/18/30
f 26/20/7 73/17/30 74/18/30
f 74/18/30 25/19/7 26/20/7
f 76/16/29 47/14/12 48/13/12
f 48/13/12 75/15/29 76/16/29
f 78/18/30 77/17/30 76/16/29
f 76/16/29 75/15/29 78/18/30
f 38/20/7 77/17/30 78/18/30
f 78/18/30 37/19/7 38/20/7
f 81/23/17 80/22/16 79/21/15
f 79/21/15 82/24/18 81/23/17
f 84/26/20 82/24/18 79/21/15
f 79/21/15 83/25/19 84/26/20
f 84/26/20 83/25/19 85/27/21
f 85/27/21 86/28/22 84/26/20
f 88/31/24 83/25/19 79/21/15
f 79/21/15 87/29/23 88/31/24
f 90/33/26 89/19/25 85/32/21
f 85/32/21 88/31/24 90/33/26
f 91/34/27 90/33/26 88/31/24
f 88/31/24 87/29/23 91/34/27
f 92/13/28 91/34/27 87/29/23
f 87/29/23 80/30/16 92/13/28
f 95/23/17 94/22/16 93/21/15
f 93/21/15 96/24/18 95/23/17
f 98/26/20 96/24/18 93/21/15
f 93/21/15 97/25/19 98/26/20
f 98/26/20 97/25/19 99/27/21
f 99/27/21 100/28/22 98/26/20
f 102/31/24 97/25/19 93/21/15
f 93/21/15 101/29/23 102/31/24
f 104/33/26 103/19/25 99/32/21
f 99/32/21 102/31/24 104/33/26
f 105/34/27 104/33/26 102/31/24
f 102/31/24 101/29/23 105/34/27
f 106/13/28 105/34/27 101/29/23
f 101/29/23 94/30/16 106/13/28
f 109/23/17 108/22/16 107/21/15
f 107/21/15 110/24/18 109/23/17
f 112/26/20 110/24/18 107/21/15
f 107/21/15 111/25/19 112/26/20
f 112/26/20 111/25/19 113/27/21
f 113/27/21 114/28/22 112/26/20
f 116/31/24 111/25/19 107/21/15
f 107/21/15 115/29/23 116/31/24
f 118/33/26 117/19/25 113/32/21
f 113/32/21 116/31/24 118/33/26
f 119/34/27 118/33/26 116/31/24
f 116/31/24 115/29/23 119/34/27
f 120/13/28 119/34/27 115/29/23
f 115/29/23 108/30/16 120/13/28
f 124/38/34 122/36/32 121/35/31
f 121/35/31 123/37/33 124/38/34
f 126/40/36 124/38/34 123/37/33
f 123/37/33 125/39/35 126/40/36
f 142/58/52 127/41/37 124/38/34
f 124/38/34 126/40/36 142/58/52
f 128/42/38 125/39/35 123/37/33
f 123/37/33 129/43/39 128/42/38
f 129/43/39 123/37/33 121/44/31
f 121/44/31 130/45/40 129/43/39
f 132/47/42 131/46/41 129/43/39
f 129/43/39 130/45/40 132/47/42
f 136/51/46 128/42/38 129/43/39
f 129/43/39 131/46/41 136/51/46
f 134/49/44 133/48/43 131/46/41
f 131/46/41 132/47/42 134/49/44
f 136/51/46 131/46/41 133/48/43
f 133/48/43 135/50/45 136/51/46
f 136/51/46 135/50/45 137/52/47
f 137/52/47 138/53/48 136/51/46
f 139/54/49 128/42/38 136/51/46
f 136/51/46 138/53/48 139/54/49
f 140/55/50 125/39/35 128/42/38
f 128/42/38 139/54/49 140/55/50
f 141/57/51 126/40/36 125/39/35
f 125/39/35 140/56/50 141/57/51
f 142/58/52 126/40/36 141/57/51
f 141/57/51 147/63/57 142/58/52
f 127/41/37 142/58/52 143/59/53
f 143/59/53 144/60/54 127/41/37
f 146/62/56 145/61/55 144/60/54
f 144/60/54 143/59/53 146/62/56
f 148/64/58 143/59/53 142/58/52
f 142/58/52 147/63/57 148/64/58
f 149/65/59 146/62/56 143/59/53
f 143/59/53 148/64/58 149/65/59
f 152/70/62 141/57/51 140/56/50
f 140/56/50 150/66/60 152/70/62
f 151/67/61 150/66/60 140/56/50
f 140/56/50 139/68/49 151/67/61
f 156/76/66 151/67/61 139/68/49
f 139/68/49 138/69/48 156/76/66
f 159/80/69 147/71/57 141/57/51
f 141/57/51 152/70/62 159/80/69
f 154/73/64 150/66/60 151/67/61
f 151/67/61 153/72/63 154/73/64
f 155/74/65 153/72/63 151/67/61
f 151/67/61 156/76/66 155/74/65
f 160/81/70 152/70/62 150/66/60
f 150/66/60 154/75/64 160/81/70
f 158/78/68 157/77/67 155/74/65
f 155/74/65 156/76/66 158/78/68
f 158/78/68 156/76/66 138/69/48
f 138/69/48 137/79/47 158/78/68
f 159/80/69 152/70/62 160/81/70
f 160/81/70 163/86/73 159/80/69
f 147/71/57 159/80/69 161/82/71
f 161/82/71 148/83/58 147/71/57
f 162/85/72 149/84/59 148/83/58
f 148/83/58 161/82/71 162/85/72
f 164/87/74 161/82/71 159/80/69
f 159/80/69 163/86/73 164/87/74
f 165/88/75 162/85/72 161/82/71
f 161/82/71 164/87/74 165/88/75
f 168/93/78 160/81/70 154/75/64
f 154/75/64 166/89/76 168/93/78
f 167/90/77 166/89/76 154/75/64
f 154/75/64 153/91/63 167/90/77
f 172/99/82 167/90/77 153/91/63
f 153/91/63 155/92/65 172/99/82
f 175/103/85 163/94/73 160/81/70
f 160/81/70 168/93/78 175/103/85
f 170/96/80 166/89/76 167/90/77
f 167/90/77 169/95/79 170/96/80
f 171/97/81 169/95/79 167/90/77
f 167/90/77 172/99/82 171/97/81
f 176/104/86 168/93/78 166/89/76
f 166/89/76 170/98/80 176/104/86
f 174/101/84 173/100/83 171/97/81
f 171/97/81 172/99/82 174/101/84
f 174/101/84 172/99/82 155/92/65
f 155/92/65 157/102/67 174/101/84
f 175/103/85 168/93/78 176/104/86
f 176/104/86 179/109/89 175/103/85
f 163/94/73 175/103/85 177/105/87
f 177/105/87 164/106/74 163/94/73
f 178/108/88 165/107/75 164/106/74
f 164/106/74 177/105/87 178/108/88
f 180/110/90 177/105/87 175/103/85
f 175/103/85 179/109/89 180/110/90
f 181/111/91 178/108/88 177/105/87
f 177/105/87 180/110/90 181/111/91
f 184/116/94 176/104/86 170/98/80
f 170/98/80 182/112/92 184/116/94
f 183/113/93 182/112/92 170/98/80
f 170/98/80 169/114/79 183/113/93
f 188/122/98 183/113/93 169/114/79
f 169/114/79 171/115/81 188/122/98
f 191/126/101 179/117/89 176/104/86
f 176/104/86 184/116/94 191/126/101
f 186/119/96 182/112/92 183/113/93
f 183/113/93 185/118/95 186/119/96
f 187/120/97 185/118/95 183/113/93
f 183/113/93 188/122/98 187/120/97
f 192/127/102 184/116/94 182/112/92
f 182/112/92 186/121/96 192/127/102
f 190/124/100 189/123/99 187/120/97
f 187/120/97 188/122/98 190/124/100
f 190/124/100 188/122/98 171/115/81
f 171/115/81 173/125/83 190/124/100
f 191/126/101 184/116/94 192/127/102
f 192/127/102 195/132/105 191/126/101
f 179/117/89 191/126/101 193/128/103
f 193/128/103 180/129/90 179/117/89
f 194/131/104 181/130/91 180/129/90
f 180/129/90 193/128/103 194/131/104
f 196/133/106 193/128/103 191/126/101
f 191/126/101 195/132/105 196/133/106
f 197/134/107 194/131/104 193/128/103
f 193/128/103 196/133/106 197/134/107
f 200/139/110 192/127/102 186/121/96
f 186/121/96 198/135/108 200/139/110
f 199/136/109 198/135/108 186/121/96
f 186/121/96 185/137/95 199/136/109
f 204/145/114 199/136/109 185/137/95
f 185/137/95 187/138/97 204/145/114
f 207/149/117 195/140/105 192/127/102
f 192/127/102 200/139/110 207/149/117
f 202/142/112 198/135/108 199/136/109
f 199/136/109 201/141/111 202/142/112
f 203/143/113 201/141/111 199/136/109
f 199/136/109 204/145/114 203/143/113
f 208/150/118 200/139/110 198/135/108
f 198/135/108 202/144/112 208/150/118
f 206/147/116 205/146/115 203/143/113
f 203/143/113 204/145/114 206/147/116
f 206/147/116 204/145/114 187/138/97
f 187/138/97 189/148/99 206/147/116
f 207/149/117 200/139/110 208/150/118
f 208/150/118 211/155/121 207/149/117
f 195/140/105 207/149/117 209/151/119
f 209/151/119 196/152/106 195/140/105
f 210/154/120 197/153/107 196/152/106
f 196/152/106 209/151/119 210/154/120
f 212/156/122 209/151/119 207/149/117
f 207/149/117 211/155/121 212/156/122
f 213/157/123 210/154/120 209/151/119
f 209/151/119 212/156/122 213/157/123
f 216/162/126 208/150/118 202/144/112
f 202/144/112 214/158/124 216/162/126
f 215/159/125 214/158/124 202/144/112
f 202/144/112 201/160/111 215/159/125
f 220/168/130 215/159/125 201/160/111
f 201/160/111 203/161/113 220/168/130
f 223/172/133 211/163/121 208/150/118
f 208/150/118 216/162/126 223/172/133
f 218/165/128 214/158/124 215/159/125
f 215/159/125 217/164/127 218/165/128
f 219/166/129 217/164/127 215/159/125
f 215/159/125 220/168/130 219/166/129
f 224/173/134 216/162/126 214/158/124
f 214/158/124 218/167/128 224/173/134
f 222/170/132 221/169/131 219/166/129
f 219/166/129 220/168/130 222/170/132
f 222/170/132 220/168/130 203/161/113
f 203/161/113 205/171/115 222/170/132
f 223/172/133 216/162/126 224/173/134
f 224/173/134 227/178/137 223/172/133
f 211/163/121 223/172/133 225/174/135
f 225/174/135 212/175/122 211/163/121
f 226/177/136 213/176/123 212/175/122
f 212/175/122 225/174/135 226/177/136
f 228/179/138 225/174/135 223/172/133
f 223/172/133 227/178/137 228/179/138
f 229/180/139 226/177/136 225/174/135
f 225/174/135 228/179/138 229/180/139
f 232/185/142 224/173/134 218/167/128
f 218/167/128 230/181/140 232/185/142
f 231/182/141 230/181/140 218/167/128
f 218/167/128 217/183/127 231/182/141
f 236/191/146 231/182/141 217/183/127
f 217/183/127 219/184/129 236/191/146
f 239/195/149 227/186/137 224/173/134
f 224/173/134 232/185/142 239/195/149
f 234/188/144 230/181/140 231/182/141
f 231/182/141 233/187/143 234/188/144
f 235/189/145 233/187/143 231/182/141
f 231/182/141 236/191/146 235/189/145
f 240/196/150 232/185/142 230/181/140
f 230/181/140 234/190/144 240/196/150
f 238/193/148 237/192/147 235/189/145
f 235/189/145 236/191/146 238/193/148
f 238/193/148 236/191/146 219/184/129
f 219/184/129 221/194/131 238/193/148
f 239/195/149 232/185/142 240/196/150
f 240/196/150 243/201/153 239/195/149
f 227/186/137 239/195/149 241/197/151
f 241/197/151 228/198/138 227/186/137
f 242/200/152 229/199/139 228/198/138
f 228/198/138 241/197/151 242/200/152
f 244/202/154 241/197/151 239/195/149
f 239/195/149 243/201/153 244/202/154
f 245/203/155 242/200/152 241/197/151
f 241/197/151 244/202/154 245/203/155
f 248/208/158 240/196/150 234/190/144
f 234/190/144 246/204/156 248/208/158
f 247/205/157 246/204/156 234/190/144
f 234/190/144 233/206/143 247/205/157
f 252/214/162 247/205/157 233/206/143
f 233/206/143 235/207/145 252/214/162
f 255/218/165 243/209/153 240/196/150
f 240/196/150 248/208/158 255/218/165
f 250/211/160 246/204/156 247/205/157
f 247/205/157 249/210/159 250/211/160
f 251/212/161 249/210/159 247/205/157
f 247/205/157 252/214/162 251/212/161
f 256/219/166 248/208/158 246/204/156
f 246/204/156 250/213/160 256/219/166
f 254/216/164 253/215/163 251/212/161
f 251/212/161 252/214/162 254/216/164
f 254/216/164 252/214/162 235/207/145
f 235/207/145 237/217/147 254/216/164
f 255/218/165 248/208/158 256/219/166
f 256/219/166 259/224/169 255/218/165
f 243/209/153 255/218/165 257/220/167
f 257/220/167 244/221/154 243/209/153
f 258/223/168 245/222/155 244/221/154
f 244/221/154 257/220/167 258/223/168
f 260/225/170 257/220/167 255/218/165
f 255/218/165 259/224/169 260/225/170
f 261/226/171 258/223/168 257/220/167
f 257/220/167 260/225/170 261/226/171
f 266/234/176 256/219/166 250/213/160
f 250/213/160 262/227/172 266/234/176
f 249/229/159 263/228/173 262/227/172
f 262/227/172 250/213/160 249/229/159
f 264/231/174 263/228/173 249/229/159
f 249/229/159 251/230/161 264/231/174
f 253/233/163 265/232/175 264/231/174
f 264/231/174 251/230/161 253/233/163
f 259/235/169 256/219/166 266/234/176
f 266/234/176 267/236/177 259/235/169
f 259/235/169 267/236/177 268/237/178
f 268/237/178 260/238/170 259/235/169
f 261/239/171 260/238/170 268/237/178
f 268/237/178 269/240/179 261/239/171
f 271/242/181 266/234/176 262/227/172
f 262/227/172 270/241/180 271/242/181
f 272/243/182 270/241/180 262/227/172
f 262/227/172 263/244/173 272/243/182
f 264/246/174 273/245/183 272/243/182
f 272/243/182 263/244/173 264/246/174
f 270/241/180 272/243/182 130/247/40
f 130/247/40 121/248/31 270/241/180
f 130/247/40 272/243/182 273/245/183
f 273/245/183 132/249/42 130/247/40
f 122/253/32 271/242/181 270/241/180
f 270/241/180 121/248/31 122/253/32
f 274/251/184 134/250/44 132/249/42
f 132/249/42 273/245/183 274/251/184
f 265/252/175 274/251/184 273/245/183
f 273/245/183 264/246/174 265/252/175
f 275/254/185 271/242/181 122/253/32
f 122/253/32 276/258/186 275/254/185
f 266/256/176 271/242/181 275/254/185
f 275/254/185 267/255/177 266/256/176
f 268/257/178 267/255/177 275/254/185
f 275/254/185 278/263/188 268/257/178
f 276/258/186 122/253/32 124/259/34
f 124/259/34 127/260/37 276/258/186
f 144/262/54 277/261/187 276/258/186
f 276/258/186 127/260/37 144/262/54
f 278/263/188 275/254/185 276/258/186
f 276/258/186 277/261/187 278/263/188
f 279/265/189 269/264/179 268/257/178
f 268/257/178 278/263/188 279/265/189
f 279/265/189 278/263/188 277/261/187
f 277/261/187 280/266/190 279/265/189
f 145/267/55 280/266/190 277/261/187
f 277/261/187 144/262/54 145/267/55
f 63/270/21 67/269/25 281/268/191
f 281/268/191 64/271/22 63/270/21
f 64/271/22 281/268/191 282/272/192
f 282/272/192 283/273/193 64/271/22
f 283/273/193 282/272/192 284/275/194
f 284/275/194 285/277/195 283/273/193
f 60/276/18 62/274/20 283/273/193
f 283/273/193 285/277/195 60/276/18
f 285/277/195 284/275/194 286/278/196
f 286/278/196 59/279/17 285/277/195
f 59/279/17 286/278/196 70/280/28
f 70/280/28 58/281/16 59/279/17
f 85/270/21 89/269/25 287/268/191
f 287/268/191 86/271/22 85/270/21
f 86/271/22 287/268/191 288/272/192
f 288/272/192 289/273/193 86/271/22
f 289/273/193 288/272/192 290/275/194
f 290/275/194 291/277/195 289/273/193
f 82/276/18 84/274/20 289/273/193
f 289/273/193 291/277/195 82/276/18
f 291/277/195 290/275/194 292/278/196
f 292/278/196 81/279/17 291/277/195
f 81/279/17 292/278/196 92/280/28
f 92/280/28 80/281/16 81/279/17
f 99/270/21 103/269/25 293/268/191
f 293/268/191 100/271/22 99/270/21
f 100/271/22 293/268/191 294/272/192
f 294/272/192 295/273/193 100/271/22
f 295/273/193 294/272/192 296/275/194
f 296/275/194 297/277/195 295/273/193
f 96/276/18 98/274/20 295/273/193
f 295/273/193 297/277/195 96/276/18
f 297/277/195 296/275/194 298/278/196
f 298/278/196 95/279/17 297/277/195
f 95/279/17 298/278/196 106/280/28
f 106/280/28 94/281/16 95/279/17
f 113/270/21 117/269/25 299/268/191
f 299/268/191 114/271/22 113/270/21
f 114/271/22 299/268/191 300/272/192
f 300/272/192 301/273/193 114/271/22
f 301/273/193 300/272/192 302/275/194
f 302/275/194 303/277/195 301/273/193
f 110/276/18 112/274/20 301/273/193
f 301/273/193 303/277/195 110/276/18
f 303/277/195 302/275/194 304/278/196
f 304/278/196 109/279/17 303/277/195
f 109/279/17 304/278/196 120/280/28
f 120/280/28 108/281/16 109/279/17
f 306/286/197 305/283/197 133/282/43
f 133/282/43 134/284/44 306/286/197
f 308/290/197 306/286/197 274/287/184
f 274/287/184 265/288/175 308/290/197
f 135/285/45 305/283/197 307/289/197
f 307/289/197 137/291/47 135/285/45
f 310/298/197 308/290/197 253/292/163
f 253/292/163 254/294/164 310/298/197
f 158/293/68 307/289/197 309/295/197
f 309/295/197 157/296/67 158/293/68
f 312/304/197 310/298/197 237/299/147
f 237/299/147 238/300/148 312/304/197
f 174/297/84 309/295/197 311/301/197
f 311/301/197 173/302/83 174/297/84
f 314/310/197 312/304/197 221/305/131
f 221/305/131 222/306/132 314/310/197
f 190/303/100 311/301/197 313/307/197
f 313/307/197 189/308/99 190/303/100
f 313/307/197 311/301/197 306/286/197
f 306/286/197 314/310/197 313/307/197
f 206/309/116 313/307/197 314/310/197
f 314/310/197 205/311/115 206/309/116
f 316/316/198 315/313/198 280/312/190
f 280/312/190 145/314/55 316/316/198
f 318/322/198 316/316/198 146/317/56
f 146/317/56 149/318/59 318/322/198
f 279/315/189 315/313/198 317/319/198
f 317/319/198 269/320/179 279/315/189
f 319/325/198 318/322/198 162/323/72
f 162/323/72 165/324/75 319/325/198
f 320/328/198 319/325/198 178/326/88
f 178/326/88 181/327/91 320/328/198
f 321/331/198 317/319/198 319/325/198
f 319/325/198 320/328/198 321/331/198
f 321/331/198 320/328/198 194/329/104
f 194/329/104 197/330/107 321/331/198
f 322/334/198 321/331/198 210/332/120
f 210/332/120 213/333/123 322/334/198
f 323/337/198 322/334/198 226/335/136
f 226/335/136 229/336/139 323/337/198
f 324/340/198 317/319/198 322/334/198
f 322/334/198 323/337/198 324/340/198
f 324/340/198 323/337/198 242/338/152
f 242/338/152 245/339/155 324/340/198
f 261/321/171 317/319/198 324/340/198
f 324/340/198 258/341/168 261/321/171

