# This file uses centimeters as units for non-parametric coordinates.

mtllib chave_fenda.mtl
g default
v -0.463561 -0.031201 0.071686
v 0.493792 -0.031201 0.071686
v -0.463561 0.031201 0.071686
v 0.493792 0.031201 0.071686
v -0.463561 0.031201 -0.085632
v 0.493792 0.031201 -0.085632
v -0.463561 -0.031201 -0.085632
v 0.493792 -0.031201 -0.085632
v -0.513453 -0.043042 -0.184113
v -0.648843 -0.043042 -0.184113
v -0.513453 0.043042 -0.184113
v -0.648843 0.043042 -0.184113
v -0.389212 0.043042 -0.110458
v -0.758258 0.043042 -0.080185
v -0.378222 0.043042 -0.083450
v -0.610211 0.043042 -0.083450
v -0.378222 0.043042 0.083466
v -0.610211 0.043042 0.083466
v -0.389212 0.043042 0.110458
v -0.758258 0.043042 0.084961
v -0.513453 0.043042 0.184113
v -0.648843 0.043042 0.184113
v -0.513453 -0.043042 0.184113
v -0.648843 -0.043042 0.184113
v -0.389212 -0.043042 0.110458
v -0.758258 -0.043042 0.084961
v -0.378222 -0.043042 0.083466
v -0.610211 -0.043042 0.083466
v -0.378222 -0.043042 -0.083450
v -0.610211 -0.043042 -0.083450
v -0.389212 -0.043042 -0.110458
v -0.758258 -0.043042 -0.080185
v -0.750386 0.043042 -0.115509
v -0.410154 0.043042 -0.147278
v -0.410154 -0.043042 -0.147278
v -0.750386 -0.043042 -0.115509
v -0.750386 0.043042 0.106918
v -0.410154 0.043042 0.147293
v -0.410154 -0.043042 0.147293
v -0.750386 -0.043042 0.106918
v -0.362621 0.043042 0.000000
v -0.362621 -0.043042 0.000000
v -0.610211 -0.043042 0.000000
v -0.610211 0.043042 0.000000
v 0.580436 -0.043042 0.184113
v 0.715826 -0.043042 0.184113
v 0.580436 0.043042 0.184113
v 0.715826 0.043042 0.184113
v 0.456195 0.043042 0.110458
v 0.825240 0.043042 0.080185
v 0.445205 0.043042 0.083466
v 0.677194 0.043042 0.083466
v 0.445205 0.043042 -0.083450
v 0.677194 0.043042 -0.083450
v 0.456195 0.043042 -0.110458
v 0.825240 0.043042 -0.084961
v 0.580436 0.043042 -0.184113
v 0.715826 0.043042 -0.184113
v 0.580436 -0.043042 -0.184113
v 0.715826 -0.043042 -0.184113
v 0.456195 -0.043042 -0.110458
v 0.825240 -0.043042 -0.084961
v 0.445205 -0.043042 -0.083450
v 0.677194 -0.043042 -0.083450
v 0.445205 -0.043042 0.083466
v 0.677194 -0.043042 0.083466
v 0.456195 -0.043042 0.110458
v 0.825240 -0.043042 0.080185
v 0.817369 0.043042 0.115509
v 0.477137 0.043042 0.147293
v 0.477137 -0.043042 0.147293
v 0.817369 -0.043042 0.115509
v 0.817369 0.043042 -0.106918
v 0.477137 0.043042 -0.147278
v 0.477137 -0.043042 -0.147278
v 0.817369 -0.043042 -0.106918
v 0.429603 0.043042 0.000000
v 0.429603 -0.043042 0.000000
v 0.677194 -0.043042 0.000000
v 0.677194 0.043042 0.000000
vt 0.375000 0.000000
vt 0.625000 0.000000
vt 0.375000 0.250000
vt 0.625000 0.250000
vt 0.375000 0.500000
vt 0.625000 0.500000
vt 0.375000 0.750000
vt 0.625000 0.750000
vt 0.375000 1.000000
vt 0.625000 1.000000
vt 0.875000 0.000000
vt 0.875000 0.250000
vt 0.125000 0.000000
vt 0.125000 0.250000
vt 0.375000 0.000000
vt 0.625000 0.000000
vt 0.625000 0.250000
vt 0.375000 0.250000
vt 0.625000 0.275000
vt 0.375000 0.275000
vt 0.375000 0.300000
vt 0.625000 0.300000
vt 0.625000 0.350000
vt 0.375000 0.350000
vt 0.625000 0.375000
vt 0.375000 0.375000
vt 0.375000 0.400000
vt 0.625000 0.400000
vt 0.625000 0.450000
vt 0.375000 0.450000
vt 0.625000 0.475000
vt 0.375000 0.475000
vt 0.375000 0.500000
vt 0.625000 0.500000
vt 0.625000 0.750000
vt 0.375000 0.750000
vt 0.375000 0.775000
vt 0.625000 0.775000
vt 0.625000 0.800000
vt 0.375000 0.800000
vt 0.625000 0.850000
vt 0.375000 0.850000
vt 0.375000 0.875000
vt 0.625000 0.875000
vt 0.625000 0.900000
vt 0.375000 0.900000
vt 0.625000 0.950000
vt 0.375000 0.950000
vt 0.375000 0.975000
vt 0.625000 0.975000
vt 0.625000 1.000000
vt 0.375000 1.000000
vt 0.825000 0.000000
vt 0.850000 0.000000
vt 0.850000 0.250000
vt 0.825000 0.250000
vt 0.775000 0.000000
vt 0.775000 0.250000
vt 0.725000 0.000000
vt 0.750000 0.000000
vt 0.750000 0.250000
vt 0.725000 0.250000
vt 0.675000 0.000000
vt 0.675000 0.250000
vt 0.650000 0.000000
vt 0.650000 0.250000
vt 0.150000 0.000000
vt 0.175000 0.000000
vt 0.175000 0.250000
vt 0.150000 0.250000
vt 0.225000 0.000000
vt 0.225000 0.250000
vt 0.250000 0.000000
vt 0.275000 0.000000
vt 0.275000 0.250000
vt 0.250000 0.250000
vt 0.325000 0.000000
vt 0.325000 0.250000
vt 0.350000 0.000000
vt 0.350000 0.250000
vt 0.125000 0.000000
vt 0.125000 0.250000
vt 0.875000 0.000000
vt 0.875000 0.250000
vt 0.375000 0.000000
vt 0.625000 0.000000
vt 0.625000 0.250000
vt 0.375000 0.250000
vt 0.625000 0.275000
vt 0.375000 0.275000
vt 0.375000 0.300000
vt 0.625000 0.300000
vt 0.625000 0.350000
vt 0.375000 0.350000
vt 0.625000 0.375000
vt 0.375000 0.375000
vt 0.375000 0.400000
vt 0.625000 0.400000
vt 0.625000 0.450000
vt 0.375000 0.450000
vt 0.625000 0.475000
vt 0.375000 0.475000
vt 0.375000 0.500000
vt 0.625000 0.500000
vt 0.625000 0.750000
vt 0.375000 0.750000
vt 0.375000 0.775000
vt 0.625000 0.775000
vt 0.625000 0.800000
vt 0.375000 0.800000
vt 0.625000 0.850000
vt 0.375000 0.850000
vt 0.375000 0.875000
vt 0.625000 0.875000
vt 0.625000 0.900000
vt 0.375000 0.900000
vt 0.625000 0.950000
vt 0.375000 0.950000
vt 0.375000 0.975000
vt 0.625000 0.975000
vt 0.625000 1.000000
vt 0.375000 1.000000
vt 0.825000 0.000000
vt 0.850000 0.000000
vt 0.850000 0.250000
vt 0.825000 0.250000
vt 0.775000 0.000000
vt 0.775000 0.250000
vt 0.725000 0.000000
vt 0.750000 0.000000
vt 0.750000 0.250000
vt 0.725000 0.250000
vt 0.675000 0.000000
vt 0.675000 0.250000
vt 0.650000 0.000000
vt 0.650000 0.250000
vt 0.150000 0.000000
vt 0.175000 0.000000
vt 0.175000 0.250000
vt 0.150000 0.250000
vt 0.225000 0.000000
vt 0.225000 0.250000
vt 0.250000 0.000000
vt 0.275000 0.000000
vt 0.275000 0.250000
vt 0.250000 0.250000
vt 0.325000 0.000000
vt 0.325000 0.250000
vt 0.350000 0.000000
vt 0.350000 0.250000
vt 0.125000 0.000000
vt 0.125000 0.250000
vt 0.875000 0.000000
vt 0.875000 0.250000
vn 0.000000 0.000000 1.000000
vn 0.000000 0.000000 1.000000
vn 0.000000 0.000000 1.000000
vn 0.000000 0.000000 1.000000
vn 0.000000 1.000000 0.000000
vn 0.000000 1.000000 0.000000
vn 0.000000 1.000000 0.000000
vn 0.000000 1.000000 0.000000
vn 0.000000 0.000000 -1.000000
vn 0.000000 0.000000 -1.000000
vn 0.000000 0.000000 -1.000000
vn 0.000000 0.000000 -1.000000
vn 0.000000 -1.000000 0.000000
vn 0.000000 -1.000000 0.000000
vn 0.000000 -1.000000 0.000000
vn 0.000000 -1.000000 0.000000
vn 1.000000 0.000000 0.000000
vn 1.000000 0.000000 0.000000
vn 1.000000 0.000000 0.000000
vn 1.000000 0.000000 0.000000
vn -1.000000 0.000000 0.000000
vn -1.000000 0.000000 0.000000
vn -1.000000 0.000000 0.000000
vn -1.000000 0.000000 0.000000
vn 0.000000 0.000000 -1.000000
vn 0.000000 0.000000 -1.000000
vn 0.000000 0.000000 -1.000000
vn 0.000000 0.000000 -1.000000
vn 0.000000 1.000000 -0.000000
vn 0.000000 1.000000 -0.000000
vn 0.000000 1.000000 0.000000
vn 0.000000 1.000000 0.000000
vn 0.000000 1.000000 -0.000000
vn 0.000000 1.000000 0.000000
vn 0.000000 1.000000 -0.000000
vn 0.000000 1.000000 -0.000000
vn 0.000000 1.000000 -0.000000
vn 0.000000 1.000000 -0.000000
vn 0.000000 1.000000 0.000000
vn 0.000000 1.000000 -0.000000
vn 0.000000 1.000000 0.000000
vn 0.000000 1.000000 0.000000
vn 0.000000 1.000000 -0.000000
vn 0.000000 1.000000 0.000000
vn 0.000000 1.000000 0.000000
vn 0.000000 1.000000 -0.000000
vn 0.000000 1.000000 -0.000000
vn 0.000000 1.000000 -0.000000
vn 0.000000 0.000000 1.000000
vn 0.000000 0.000000 1.000000
vn 0.000000 0.000000 1.000000
vn 0.000000 0.000000 1.000000
vn 0.000000 -1.000000 -0.000000
vn 0.000000 -1.000000 -0.000000
vn 0.000000 -1.000000 -0.000000
vn 0.000000 -1.000000 0.000000
vn 0.000000 -1.000000 0.000000
vn 0.000000 -1.000000 -0.000000
vn 0.000000 -1.000000 0.000000
vn 0.000000 -1.000000 0.000000
vn 0.000000 -1.000000 -0.000000
vn 0.000000 -1.000000 0.000000
vn 0.000000 -1.000000 -0.000000
vn 0.000000 -1.000000 -0.000000
vn 0.000000 -1.000000 -0.000000
vn 0.000000 -1.000000 -0.000000
vn 0.000000 -1.000000 0.000000
vn 0.000000 -1.000000 -0.000000
vn 0.000000 -1.000000 0.000000
vn 0.000000 -1.000000 0.000000
vn 0.000000 -1.000000 0.000000
vn 0.000000 -1.000000 0.000000
vn -0.165019 0.000000 -0.986290
vn -0.671503 0.000000 0.741002
vn -0.671503 0.000000 0.741002
vn -0.165019 0.000000 -0.986290
vn -0.497740 0.000000 -0.867326
vn -0.165019 0.000000 -0.986290
vn -0.165019 0.000000 -0.986290
vn -0.497740 0.000000 -0.867326
vn -0.476256 0.000000 0.879307
vn -1.000000 0.000000 0.000000
vn -1.000000 0.000000 0.000000
vn -0.476256 0.000000 0.879307
vn -0.222964 0.000000 0.974827
vn -0.476256 0.000000 0.879307
vn -0.476256 0.000000 0.879307
vn -0.222964 0.000000 0.974827
vn -0.559852 0.000000 -0.828593
vn -0.688692 0.000000 -0.725054
vn -0.688692 0.000000 -0.725054
vn -0.559852 0.000000 -0.828593
vn 0.509933 0.000000 0.860214
vn 0.894343 0.000000 0.447381
vn 0.894343 0.000000 0.447381
vn 0.509933 0.000000 0.860214
vn 0.894343 0.000000 0.447381
vn 0.972227 0.000000 0.234041
vn 0.972227 0.000000 0.234041
vn 0.894343 0.000000 0.447381
vn 1.000000 0.000000 0.000000
vn 0.972221 0.000000 -0.234063
vn 0.972221 0.000000 -0.234063
vn 1.000000 0.000000 0.000000
vn 0.972221 0.000000 -0.234063
vn 0.894343 0.000000 -0.447381
vn 0.894343 0.000000 -0.447381
vn 0.972221 0.000000 -0.234063
vn 0.509990 0.000000 -0.860181
vn 0.335879 0.000000 -0.941905
vn 0.335879 0.000000 -0.941905
vn 0.509990 0.000000 -0.860181
vn 0.000000 1.000000 0.000000
vn 0.000000 1.000000 0.000000
vn 0.000000 1.000000 0.000000
vn 0.000000 1.000000 -0.000000
vn 0.894343 0.000000 -0.447381
vn 0.509990 0.000000 -0.860181
vn 0.509990 0.000000 -0.860181
vn 0.894343 0.000000 -0.447381
vn 0.000000 -1.000000 -0.000000
vn 0.000000 -1.000000 0.000000
vn 0.000000 -1.000000 0.000000
vn 0.000000 -1.000000 0.000000
vn -0.688692 0.000000 -0.725054
vn -0.688692 0.000000 -0.725054
vn -0.222964 0.000000 0.974827
vn -0.222964 0.000000 0.974827
vn 0.000000 1.000000 -0.000000
vn 0.000000 1.000000 -0.000000
vn 0.000000 1.000000 0.000000
vn 0.000000 1.000000 0.000000
vn 0.335700 0.000000 0.941969
vn 0.509933 0.000000 0.860214
vn 0.509933 0.000000 0.860214
vn 0.335700 0.000000 0.941969
vn 0.000000 -1.000000 0.000000
vn 0.000000 -1.000000 0.000000
vn 0.000000 -1.000000 -0.000000
vn 0.000000 -1.000000 -0.000000
vn -0.671503 0.000000 0.741002
vn -0.671503 0.000000 0.741002
vn -0.605194 0.000000 0.796078
vn -0.605194 0.000000 0.796078
vn 0.972227 0.000000 0.234041
vn 1.000000 0.000000 0.000000
vn 1.000000 0.000000 0.000000
vn 0.972227 0.000000 0.234041
vn 0.000000 -1.000000 0.000000
vn 0.000000 -1.000000 0.000000
vn 0.000000 -1.000000 0.000000
vn 0.000000 -1.000000 -0.000000
vn -1.000000 0.000000 0.000000
vn -1.000000 0.000000 0.000000
vn -0.497740 0.000000 -0.867326
vn -0.497740 0.000000 -0.867326
vn 0.000000 1.000000 -0.000000
vn 0.000000 1.000000 0.000000
vn 0.000000 1.000000 0.000000
vn 0.000000 1.000000 0.000000
vn 0.000000 0.000000 1.000000
vn 0.000000 0.000000 1.000000
vn 0.000000 0.000000 1.000000
vn 0.000000 0.000000 1.000000
vn 0.000000 1.000000 0.000000
vn 0.000000 1.000000 0.000000
vn 0.000000 1.000000 -0.000000
vn 0.000000 1.000000 -0.000000
vn 0.000000 1.000000 0.000000
vn 0.000000 1.000000 -0.000000
vn 0.000000 1.000000 0.000000
vn 0.000000 1.000000 0.000000
vn 0.000000 1.000000 0.000000
vn 0.000000 1.000000 0.000000
vn 0.000000 1.000000 0.000000
vn 0.000000 1.000000 -0.000000
vn 0.000000 1.000000 -0.000000
vn 0.000000 1.000000 -0.000000
vn 0.000000 1.000000 0.000000
vn 0.000000 1.000000 -0.000000
vn 0.000000 1.000000 -0.000000
vn 0.000000 1.000000 0.000000
vn 0.000000 1.000000 0.000000
vn 0.000000 1.000000 0.000000
vn 0.000000 0.000000 -1.000000
vn 0.000000 0.000000 -1.000000
vn 0.000000 0.000000 -1.000000
vn 0.000000 0.000000 -1.000000
vn 0.000000 -1.000000 0.000000
vn 0.000000 -1.000000 0.000000
vn 0.000000 -1.000000 0.000000
vn 0.000000 -1.000000 -0.000000
vn 0.000000 -1.000000 -0.000000
vn 0.000000 -1.000000 0.000000
vn 0.000000 -1.000000 -0.000000
vn 0.000000 -1.000000 -0.000000
vn 0.000000 -1.000000 -0.000000
vn 0.000000 -1.000000 0.000000
vn 0.000000 -1.000000 0.000000
vn 0.000000 -1.000000 0.000000
vn 0.000000 -1.000000 0.000000
vn 0.000000 -1.000000 0.000000
vn 0.000000 -1.000000 -0.000000
vn 0.000000 -1.000000 0.000000
vn 0.000000 -1.000000 -0.000000
vn 0.000000 -1.000000 -0.000000
vn 0.000000 -1.000000 0.000000
vn 0.000000 -1.000000 0.000000
vn 0.165171 0.000000 0.986265
vn 0.671503 0.000000 -0.741002
vn 0.671503 0.000000 -0.741002
vn 0.165171 0.000000 0.986265
vn 0.497740 0.000000 0.867326
vn 0.165171 0.000000 0.986265
vn 0.165171 0.000000 0.986265
vn 0.497740 0.000000 0.867326
vn 0.476256 0.000000 -0.879306
vn 1.000000 0.000000 0.000000
vn 1.000000 0.000000 0.000000
vn 0.476256 0.000000 -0.879306
vn 0.222891 0.000000 -0.974843
vn 0.476256 0.000000 -0.879306
vn 0.476256 0.000000 -0.879306
vn 0.222891 0.000000 -0.974843
vn 0.559790 0.000000 0.828635
vn 0.688692 0.000000 0.725054
vn 0.688692 0.000000 0.725054
vn 0.559790 0.000000 0.828635
vn -0.509990 0.000000 -0.860181
vn -0.894343 0.000000 -0.447381
vn -0.894343 0.000000 -0.447381
vn -0.509990 0.000000 -0.860181
vn -0.894343 0.000000 -0.447381
vn -0.972221 0.000000 -0.234063
vn -0.972221 0.000000 -0.234063
vn -0.894343 0.000000 -0.447381
vn -1.000000 0.000000 0.000000
vn -0.972227 0.000000 0.234041
vn -0.972227 0.000000 0.234041
vn -1.000000 0.000000 0.000000
vn -0.972227 0.000000 0.234041
vn -0.894343 0.000000 0.447381
vn -0.894343 0.000000 0.447381
vn -0.972227 0.000000 0.234041
vn -0.509933 0.000000 0.860214
vn -0.335700 0.000000 0.941969
vn -0.335700 0.000000 0.941969
vn -0.509933 0.000000 0.860214
vn 0.000000 1.000000 -0.000000
vn 0.000000 1.000000 -0.000000
vn 0.000000 1.000000 -0.000000
vn 0.000000 1.000000 0.000000
vn -0.894343 0.000000 0.447381
vn -0.509933 0.000000 0.860214
vn -0.509933 0.000000 0.860214
vn -0.894343 0.000000 0.447381
vn 0.000000 -1.000000 0.000000
vn 0.000000 -1.000000 -0.000000
vn 0.000000 -1.000000 -0.000000
vn 0.000000 -1.000000 -0.000000
vn 0.688692 0.000000 0.725054
vn 0.688692 0.000000 0.725054
vn 0.222891 0.000000 -0.974843
vn 0.222891 0.000000 -0.974843
vn 0.000000 1.000000 0.000000
vn 0.000000 1.000000 0.000000
vn 0.000000 1.000000 0.000000
vn 0.000000 1.000000 0.000000
vn -0.335879 0.000000 -0.941905
vn -0.509990 0.000000 -0.860181
vn -0.509990 0.000000 -0.860181
vn -0.335879 0.000000 -0.941905
vn 0.000000 -1.000000 -0.000000
vn 0.000000 -1.000000 -0.000000
vn 0.000000 -1.000000 0.000000
vn 0.000000 -1.000000 0.000000
vn 0.671503 0.000000 -0.741002
vn 0.671503 0.000000 -0.741002
vn 0.605194 0.000000 -0.796078
vn 0.605194 0.000000 -0.796078
vn -0.972221 0.000000 -0.234063
vn -1.000000 0.000000 0.000000
vn -1.000000 0.000000 0.000000
vn -0.972221 0.000000 -0.234063
vn 0.000000 -1.000000 -0.000000
vn 0.000000 -1.000000 -0.000000
vn 0.000000 -1.000000 0.000000
vn 0.000000 -1.000000 -0.000000
vn 1.000000 0.000000 0.000000
vn 1.000000 0.000000 0.000000
vn 0.497740 0.000000 0.867326
vn 0.497740 0.000000 0.867326
vn 0.000000 1.000000 -0.000000
vn 0.000000 1.000000 0.000000
vn 0.000000 1.000000 -0.000000
vn 0.000000 1.000000 -0.000000
s off
g pasted__pCube94 group3 group
usemtl pasted__pCube94SG
f 1/1/1 2/2/2 4/4/3 3/3/4
f 3/3/5 4/4/6 6/6/7 5/5/8
f 5/5/9 6/6/10 8/8/11 7/7/12
f 7/7/13 8/8/14 2/10/15 1/9/16
f 2/2/17 8/11/18 6/12/19 4/4/20
f 7/13/21 1/1/22 3/3/23 5/14/24
usemtl pasted__pCube94SG1
f 9/15/25 10/16/26 12/17/27 11/18/28
f 11/18/29 12/17/30 33/19/31 34/20/32
f 13/21/33 14/22/34 16/23/35 15/24/36
f 15/24/37 16/23/38 44/25/39 41/26/40
f 17/27/41 18/28/42 20/29/43 19/30/44
f 19/30/45 20/29/46 37/31/47 38/32/48
f 21/33/49 22/34/50 24/35/51 23/36/52
f 39/37/53 40/38/54 26/39/55 25/40/56
f 25/40/57 26/39/58 28/41/59 27/42/60
f 42/43/61 43/44/62 30/45/63 29/46/64
f 29/46/65 30/45/66 32/47/67 31/48/68
f 35/49/69 36/50/70 10/51/71 9/52/72
f 26/53/73 40/54/74 37/55/75 20/56/76
f 28/57/77 26/53/78 20/56/79 18/58/80
f 30/59/81 43/60/82 44/61/83 16/62/84
f 32/63/85 30/59/86 16/62/87 14/64/88
f 10/16/89 36/65/90 33/66/91 12/17/92
f 39/67/93 25/68/94 19/69/95 38/70/96
f 25/68/97 27/71/98 17/72/99 19/69/100
f 42/73/101 29/74/102 15/75/103 41/76/104
f 29/74/105 31/77/106 13/78/107 15/75/108
f 35/79/109 9/15/110 11/18/111 34/80/112
f 34/20/113 33/19/114 14/22/115 13/21/116
f 31/77/117 35/79/118 34/80/119 13/78/120
f 31/48/121 32/47/122 36/50/123 35/49/124
f 33/66/125 36/65/126 32/63/127 14/64/128
f 38/32/129 37/31/130 22/34/131 21/33/132
f 23/81/133 39/67/134 38/70/135 21/82/136
f 23/36/137 24/35/138 40/38/139 39/37/140
f 37/55/141 40/54/142 24/83/143 22/84/144
f 27/71/145 42/73/146 41/76/147 17/72/148
f 27/42/149 28/41/150 43/44/151 42/43/152
f 44/61/153 43/60/154 28/57/155 18/58/156
f 41/26/157 44/25/158 18/28/159 17/27/160
f 45/85/161 46/86/162 48/87/163 47/88/164
f 47/88/165 48/87/166 69/89/167 70/90/168
f 49/91/169 50/92/170 52/93/171 51/94/172
f 51/94/173 52/93/174 80/95/175 77/96/176
f 53/97/177 54/98/178 56/99/179 55/100/180
f 55/100/181 56/99/182 73/101/183 74/102/184
f 57/103/185 58/104/186 60/105/187 59/106/188
f 75/107/189 76/108/190 62/109/191 61/110/192
f 61/110/193 62/109/194 64/111/195 63/112/196
f 78/113/197 79/114/198 66/115/199 65/116/200
f 65/116/201 66/115/202 68/117/203 67/118/204
f 71/119/205 72/120/206 46/121/207 45/122/208
f 62/123/209 76/124/210 73/125/211 56/126/212
f 64/127/213 62/123/214 56/126/215 54/128/216
f 66/129/217 79/130/218 80/131/219 52/132/220
f 68/133/221 66/129/222 52/132/223 50/134/224
f 46/86/225 72/135/226 69/136/227 48/87/228
f 75/137/229 61/138/230 55/139/231 74/140/232
f 61/138/233 63/141/234 53/142/235 55/139/236
f 78/143/237 65/144/238 51/145/239 77/146/240
f 65/144/241 67/147/242 49/148/243 51/145/244
f 71/149/245 45/85/246 47/88/247 70/150/248
f 70/90/249 69/89/250 50/92/251 49/91/252
f 67/147/253 71/149/254 70/150/255 49/148/256
f 67/118/257 68/117/258 72/120/259 71/119/260
f 69/136/261 72/135/262 68/133/263 50/134/264
f 74/102/265 73/101/266 58/104/267 57/103/268
f 59/151/269 75/137/270 74/140/271 57/152/272
f 59/106/273 60/105/274 76/108/275 75/107/276
f 73/125/277 76/124/278 60/153/279 58/154/280
f 63/141/281 78/143/282 77/146/283 53/142/284
f 63/112/285 64/111/286 79/114/287 78/113/288
f 80/131/289 79/130/290 64/127/291 54/128/292
f 77/96/293 80/95/294 54/98/295 53/97/296
