# This file uses centimeters as units for non-parametric coordinates.

mtllib prego.mtl
g default
v 0.297725 0.052718 -0.098450
v 0.297725 -0.060968 -0.098450
v 0.297725 -0.117811 0.000015
v 0.297725 -0.060968 0.098465
v 0.297725 0.052718 0.098465
v 0.297725 0.109561 0.000015
v 0.255682 0.052718 -0.098450
v 0.255682 -0.060968 -0.098450
v 0.255682 -0.117811 0.000015
v 0.255682 -0.060968 0.098465
v 0.255682 0.052718 0.098465
v 0.255682 0.109561 0.000015
v 0.297725 -0.004125 0.000015
v 0.255682 -0.004125 0.000015
v 0.280132 -0.023603 0.019485
v 0.280132 0.015353 0.019485
v -0.297725 -0.013423 0.009308
v -0.297725 0.005173 0.009308
v -0.297725 -0.013423 -0.009293
v -0.297725 0.005173 -0.009293
v 0.280132 -0.023603 -0.019470
v 0.280132 0.015353 -0.019470
vt 0.578125 0.020934
vt 0.421875 0.020934
vt 0.343750 0.156250
vt 0.421875 0.291566
vt 0.578125 0.291566
vt 0.656250 0.156250
vt 0.375000 0.312500
vt 0.416667 0.312500
vt 0.458333 0.312500
vt 0.500000 0.312500
vt 0.541667 0.312500
vt 0.583333 0.312500
vt 0.625000 0.312500
vt 0.375000 0.688440
vt 0.416667 0.688440
vt 0.458333 0.688440
vt 0.500000 0.688440
vt 0.541667 0.688440
vt 0.583333 0.688440
vt 0.625000 0.688440
vt 0.578125 0.708434
vt 0.421875 0.708434
vt 0.343750 0.843750
vt 0.421875 0.979066
vt 0.578125 0.979066
vt 0.656250 0.843750
vt 0.500000 0.150000
vt 0.500000 0.837500
vt 0.375000 0.000000
vt 0.625000 0.000000
vt 0.625000 0.250000
vt 0.375000 0.250000
vt 0.625000 0.500000
vt 0.375000 0.500000
vt 0.625000 0.750000
vt 0.375000 0.750000
vt 0.625000 1.000000
vt 0.375000 1.000000
vt 0.875000 0.000000
vt 0.875000 0.250000
vt 0.125000 0.000000
vt 0.125000 0.250000
vn 0.000000 0.000000 -1.000000
vn 0.000000 0.000000 -1.000000
vn 0.000000 0.000000 -1.000000
vn 0.000000 0.000000 -1.000000
vn -0.000000 -0.866030 -0.499991
vn -0.000000 -0.866030 -0.499991
vn -0.000000 -0.866030 -0.499991
vn -0.000000 -0.866030 -0.499991
vn -0.000000 -0.866031 0.499991
vn -0.000000 -0.866031 0.499991
vn -0.000000 -0.866031 0.499991
vn -0.000000 -0.866031 0.499991
vn 0.000000 0.000000 1.000000
vn 0.000000 0.000000 1.000000
vn 0.000000 0.000000 1.000000
vn 0.000000 0.000000 1.000000
vn 0.000000 0.866030 0.499991
vn 0.000000 0.866030 0.499991
vn 0.000000 0.866030 0.499991
vn 0.000000 0.866030 0.499991
vn 0.000000 0.866031 -0.499991
vn 0.000000 0.866031 -0.499991
vn 0.000000 0.866031 -0.499991
vn 0.000000 0.866031 -0.499991
vn 1.000000 -0.000000 0.000000
vn 1.000000 -0.000000 0.000000
vn 1.000000 -0.000000 0.000000
vn 1.000000 -0.000000 0.000000
vn 1.000000 -0.000000 0.000000
vn 1.000000 -0.000000 0.000000
vn 1.000000 -0.000000 0.000000
vn 1.000000 -0.000000 0.000000
vn 1.000000 -0.000000 0.000000
vn 1.000000 -0.000000 0.000000
vn 1.000000 -0.000000 0.000000
vn 1.000000 -0.000000 0.000000
vn 1.000000 -0.000000 0.000000
vn 1.000000 -0.000000 0.000000
vn 1.000000 -0.000000 0.000000
vn 1.000000 -0.000000 0.000000
vn 1.000000 -0.000000 0.000000
vn 1.000000 -0.000000 0.000000
vn -1.000000 0.000000 0.000000
vn -1.000000 0.000000 0.000000
vn -1.000000 0.000000 0.000000
vn -1.000000 0.000000 0.000000
vn -1.000000 0.000000 0.000000
vn -1.000000 0.000000 0.000000
vn -1.000000 0.000000 0.000000
vn -1.000000 0.000000 0.000000
vn -1.000000 0.000000 0.000000
vn -1.000000 0.000000 0.000000
vn -1.000000 0.000000 0.000000
vn -1.000000 0.000000 0.000000
vn -1.000000 0.000000 0.000000
vn -1.000000 0.000000 0.000000
vn -1.000000 0.000000 0.000000
vn -1.000000 0.000000 0.000000
vn -1.000000 0.000000 0.000000
vn -1.000000 0.000000 0.000000
vn -0.017610 0.000000 0.999845
vn -0.017610 0.000000 0.999845
vn -0.017610 0.000000 0.999845
vn -0.017610 0.000000 0.999845
vn -1.000000 0.000000 0.000000
vn -1.000000 0.000000 0.000000
vn -1.000000 0.000000 0.000000
vn -1.000000 0.000000 0.000000
vn -0.017610 0.000000 -0.999845
vn -0.017610 0.000000 -0.999845
vn -0.017610 0.000000 -0.999845
vn -0.017610 0.000000 -0.999845
vn 1.000000 -0.000000 0.000000
vn 1.000000 -0.000000 0.000000
vn 1.000000 -0.000000 0.000000
vn 1.000000 -0.000000 0.000000
vn -0.017613 0.999845 0.000000
vn -0.017613 0.999845 0.000000
vn -0.017613 0.999845 0.000000
vn -0.017613 0.999845 0.000000
vn -0.017612 -0.999845 0.000000
vn -0.017612 -0.999845 0.000000
vn -0.017612 -0.999845 0.000000
vn -0.017612 -0.999845 0.000000
s off
g pasted__pCylinder16 group3 group
usemtl pasted__pCylinder16SG
f 1/7/1 2/8/2 8/15/3 7/14/4
f 2/8/5 3/9/6 9/16/7 8/15/8
f 3/9/9 4/10/10 10/17/11 9/16/12
f 4/10/13 5/11/14 11/18/15 10/17/16
f 5/11/17 6/12/18 12/19/19 11/18/20
f 6/12/21 1/13/22 7/20/23 12/19/24
f 2/2/25 1/1/26 13/27/27
f 3/3/28 2/2/29 13/27/30
f 4/4/31 3/3/32 13/27/33
f 5/5/34 4/4/35 13/27/36
f 6/6/37 5/5/38 13/27/39
f 1/1/40 6/6/41 13/27/42
f 7/25/43 8/24/44 14/28/45
f 8/24/46 9/23/47 14/28/48
f 9/23/49 10/22/50 14/28/51
f 10/22/52 11/21/53 14/28/54
f 11/21/55 12/26/56 14/28/57
f 12/26/58 7/25/59 14/28/60
f 15/29/61 16/30/62 18/31/63 17/32/64
f 17/32/65 18/31/66 20/33/67 19/34/68
f 19/34/69 20/33/70 22/35/71 21/36/72
f 21/36/73 22/35/74 16/37/75 15/38/76
f 16/30/77 22/39/78 20/40/79 18/31/80
f 21/41/81 15/29/82 17/32/83 19/42/84
