# This file uses centimeters as units for non-parametric coordinates.

mtllib scrap6.mtl
g default
v 0.258386 -0.524687 -0.083959
v 0.219794 -0.524687 -0.159696
v 0.000000 -0.549646 0.000000
v 0.159688 -0.524687 -0.219800
v 0.083951 -0.524687 -0.258388
v -0.000004 -0.524687 -0.271684
v -0.083959 -0.524687 -0.258385
v -0.159695 -0.524687 -0.219794
v -0.219800 -0.524687 -0.159688
v -0.258388 -0.524687 -0.083951
v -0.271684 -0.524687 0.000004
v -0.258385 -0.524687 0.083959
v -0.219794 -0.524687 0.159696
v -0.159688 -0.524687 0.219800
v -0.083951 -0.524687 0.258388
v 0.000004 -0.524687 0.271684
v 0.083959 -0.524687 0.258385
v 0.159695 -0.524687 0.219794
v 0.219800 -0.524687 0.159688
v 0.258388 -0.524687 0.083951
v 0.271684 -0.524687 -0.000004
v 0.258385 0.263235 -0.083954
v 0.219795 0.263235 -0.159691
v 0.159691 0.263235 -0.219795
v 0.083954 0.263235 -0.258385
v 0.000000 0.263235 -0.271682
v -0.083954 0.263235 -0.258385
v -0.159691 0.263235 -0.219795
v -0.219795 0.263235 -0.159691
v -0.258385 0.263235 -0.083954
v -0.271682 0.263235 0.000000
v -0.258385 0.263235 0.083954
v -0.219795 0.263235 0.159691
v -0.159691 0.263235 0.219795
v -0.083954 0.263235 0.258385
v 0.000000 0.263235 0.271682
v 0.083954 0.263235 0.258385
v 0.159691 0.263235 0.219795
v 0.219795 0.263235 0.159691
v 0.258385 0.263235 0.083954
v 0.271682 0.263235 0.000000
v 0.252059 0.460846 -0.081665
v 0.282455 0.502959 -0.091775
v 0.240271 0.502959 -0.174567
v 0.174567 0.502959 -0.240271
v 0.091775 0.502959 -0.282455
v 0.000000 0.502959 -0.296991
v -0.091775 0.502959 -0.282455
v -0.174567 0.502959 -0.240271
v -0.240271 0.502959 -0.174567
v -0.282455 0.502959 -0.091775
v -0.296991 0.502959 0.000000
v -0.282455 0.502959 0.091775
v -0.240271 0.502959 0.174567
v -0.174567 0.502959 0.240271
v -0.091775 0.502959 0.282455
v 0.000000 0.502959 0.296991
v 0.091775 0.502959 0.282455
v 0.174567 0.502959 0.240271
v 0.240271 0.502959 0.174567
v 0.282455 0.502959 0.091775
v 0.296991 0.502959 0.000000
v 0.348417 0.273090 -0.113162
v 0.309468 0.298050 -0.224846
v 0.296388 0.273090 -0.215328
v 0.296631 0.502959 -0.215579
v 0.363805 0.478001 -0.118203
v 0.348757 0.502959 -0.113327
v 0.224840 0.298050 -0.309472
v 0.215334 0.273090 -0.296382
v 0.215495 0.502959 -0.296692
v 0.118203 0.298050 -0.363805
v 0.113208 0.273090 -0.348418
v 0.113265 0.502959 -0.348762
v -0.000005 0.298050 -0.382526
v 0.000000 0.273090 -0.366348
v -0.000052 0.502959 -0.366694
v -0.118211 0.298050 -0.363802
v -0.113207 0.273090 -0.348418
v -0.113364 0.502959 -0.348731
v -0.224846 0.298050 -0.309468
v -0.215334 0.273090 -0.296382
v -0.215579 0.502959 -0.296631
v -0.309472 0.298050 -0.224840
v -0.296382 0.273090 -0.215334
v -0.296692 0.502959 -0.215495
v -0.363805 0.298050 -0.118203
v -0.348417 0.273090 -0.113208
v -0.348762 0.502959 -0.113265
v -0.382526 0.298050 0.000004
v -0.366348 0.273090 0.000000
v -0.366694 0.502959 0.000052
v -0.363802 0.298050 0.118211
v -0.348417 0.273090 0.113208
v -0.348730 0.502959 0.113364
v -0.309468 0.298050 0.224846
v -0.296382 0.273090 0.215334
v -0.296631 0.502959 0.215579
v -0.224840 0.298050 0.309472
v -0.215334 0.273090 0.296382
v -0.215495 0.502959 0.296692
v -0.118203 0.298050 0.363805
v -0.113208 0.273090 0.348417
v -0.113265 0.502959 0.348762
v 0.000004 0.298050 0.382526
v 0.000000 0.273090 0.366348
v 0.000052 0.502959 0.366694
v 0.118211 0.298050 0.363802
v 0.113208 0.273090 0.348417
v 0.113364 0.502959 0.348730
v 0.224846 0.298050 0.309468
v 0.215334 0.273090 0.296382
v 0.215579 0.502959 0.296631
v 0.309472 0.298050 0.224840
v 0.296382 0.273090 0.215334
v 0.296692 0.502959 0.215495
v 0.363805 0.298050 0.118203
v 0.348417 0.273090 0.113208
v 0.348762 0.502959 0.113265
v 0.382526 0.298049 -0.000004
v 0.366348 0.273090 0.000000
v 0.366692 0.502959 -0.000043
v 0.000000 0.452959 0.000000
v 0.251321 -0.542336 -0.081661
v 0.213786 -0.542336 -0.155327
v 0.155324 -0.542336 -0.213788
v 0.081658 -0.542336 -0.251322
v -0.000001 -0.542336 -0.264255
v -0.081661 -0.542336 -0.251321
v -0.155327 -0.542336 -0.213786
v -0.213788 -0.542336 -0.155324
v -0.251322 -0.542336 -0.081658
v -0.264255 -0.542336 0.000001
v -0.251321 -0.542336 0.081661
v -0.213786 -0.542336 0.155327
v -0.155324 -0.542336 0.213788
v -0.081658 -0.542336 0.251322
v 0.000001 -0.542336 0.264255
v 0.081661 -0.542336 0.251321
v 0.155327 -0.542336 0.213786
v 0.213788 -0.542336 0.155324
v 0.251322 -0.542336 0.081658
v 0.264255 -0.542336 -0.000001
v 0.264704 0.495058 -0.086238
v 0.225262 0.495119 -0.163632
v 0.163658 0.495114 -0.225257
v 0.086047 0.495113 -0.264797
v 0.000001 0.495115 -0.278438
v -0.086057 0.495114 -0.264798
v -0.163658 0.495114 -0.225256
v -0.225260 0.495115 -0.163656
v -0.264808 0.495115 -0.086033
v -0.278434 0.495115 0.000015
v -0.264799 0.495115 0.086059
v -0.225252 0.495115 0.163661
v -0.163662 0.495115 0.225256
v -0.086034 0.495115 0.264808
v -0.000001 0.495115 0.278429
v 0.086031 0.495115 0.264809
v 0.163654 0.495115 0.225261
v 0.225260 0.495115 0.163656
v 0.264798 0.495114 0.086046
v 0.278439 0.495116 0.000001
v 0.363803 0.298064 -0.118207
v 0.309469 0.477986 -0.224842
v 0.224842 0.477987 -0.309469
v 0.118207 0.477987 -0.363803
v 0.000000 0.477987 -0.382525
v -0.118207 0.477987 -0.363803
v -0.224842 0.477987 -0.309469
v -0.309469 0.477987 -0.224842
v -0.363803 0.477987 -0.118207
v -0.382525 0.477987 0.000000
v -0.363803 0.477987 0.118207
v -0.309469 0.477987 0.224842
v -0.224842 0.477987 0.309469
v -0.118207 0.477987 0.363803
v 0.000000 0.477987 0.382525
v 0.118207 0.477987 0.363803
v 0.224842 0.477987 0.309469
v 0.309469 0.477987 0.224842
v 0.363803 0.477987 0.118207
v 0.382525 0.477987 0.000000
v 0.214312 0.460796 -0.155756
v 0.155697 0.460797 -0.214339
v 0.081835 0.460799 -0.251969
v -0.000026 0.460797 -0.264915
v -0.081873 0.460798 -0.251952
v -0.155737 0.460797 -0.214310
v -0.214336 0.460797 -0.155698
v -0.251959 0.460796 -0.081848
v -0.264919 0.460797 0.000011
v -0.251952 0.460797 0.081872
v -0.214314 0.460797 0.155734
v -0.155692 0.460797 0.214340
v -0.081847 0.460796 0.251959
v 0.000026 0.460797 0.264923
v 0.081897 0.460796 0.251943
v 0.155740 0.460797 0.214306
v 0.214336 0.460797 0.155698
v 0.251968 0.460798 0.081836
v 0.264913 0.460796 -0.000020
vt 0.625000 0.321375
vt 0.625000 0.679556
vt 0.375000 0.321375
vt 0.375000 0.679556
vt 0.387501 0.323856
vt 0.387500 0.677079
vt 0.619328 0.081498
vt 0.400001 0.323856
vt 0.400000 0.677079
vt 0.412501 0.323856
vt 0.412500 0.677079
vt 0.425001 0.323856
vt 0.425000 0.677079
vt 0.437501 0.323856
vt 0.437500 0.677079
vt 0.450001 0.323856
vt 0.450000 0.677079
vt 0.462501 0.323856
vt 0.462500 0.677079
vt 0.475000 0.323856
vt 0.475000 0.677079
vt 0.487501 0.323856
vt 0.487500 0.677079
vt 0.500001 0.323856
vt 0.500000 0.677079
vt 0.512501 0.323856
vt 0.512500 0.677079
vt 0.525001 0.323856
vt 0.525000 0.677079
vt 0.537500 0.323856
vt 0.537500 0.677079
vt 0.550001 0.323856
vt 0.550000 0.677079
vt 0.562501 0.323856
vt 0.562500 0.677079
vt 0.575001 0.323856
vt 0.575000 0.677079
vt 0.587500 0.323856
vt 0.587500 0.677079
vt 0.600000 0.323856
vt 0.600000 0.677079
vt 0.612501 0.323856
vt 0.612500 0.677079
vt 0.647136 0.892895
vt 0.624739 0.935970
vt 0.590133 0.970005
vt 0.546707 0.991678
vt 0.498709 0.998871
vt 0.450837 0.990880
vt 0.407777 0.968487
vt 0.373745 0.933883
vt 0.352072 0.890457
vt 0.344879 0.842459
vt 0.352870 0.794587
vt 0.375263 0.751527
vt 0.409867 0.717495
vt 0.453293 0.695822
vt 0.501291 0.688629
vt 0.549163 0.696620
vt 0.592223 0.719013
vt 0.626255 0.753617
vt 0.647928 0.797043
vt 0.655121 0.845041
vt 0.647925 0.890321
vt 0.647927 0.890460
vt 0.626286 0.933765
vt 0.626241 0.933902
vt 0.592290 0.968384
vt 0.592204 0.968500
vt 0.549259 0.990803
vt 0.549141 0.990887
vt 0.501406 0.998827
vt 0.501269 0.998871
vt 0.453417 0.991672
vt 0.453271 0.991671
vt 0.409986 0.970037
vt 0.409848 0.969991
vt 0.375367 0.936040
vt 0.375250 0.935954
vt 0.352947 0.893010
vt 0.352863 0.892892
vt 0.344923 0.845157
vt 0.344879 0.845019
vt 0.352078 0.797167
vt 0.352079 0.797021
vt 0.373713 0.753736
vt 0.373759 0.753598
vt 0.407710 0.719116
vt 0.407796 0.719000
vt 0.450740 0.696697
vt 0.450858 0.696613
vt 0.498594 0.688673
vt 0.498731 0.688629
vt 0.546584 0.695828
vt 0.546729 0.695829
vt 0.590015 0.717463
vt 0.590152 0.717509
vt 0.624634 0.751460
vt 0.624750 0.751546
vt 0.647053 0.794491
vt 0.647137 0.794608
vt 0.655078 0.842344
vt 0.655121 0.842478
vt 0.647645 0.891721
vt 0.625593 0.935001
vt 0.591248 0.969345
vt 0.547971 0.991395
vt 0.499998 0.998992
vt 0.452026 0.991394
vt 0.408750 0.969343
vt 0.374405 0.934998
vt 0.352355 0.891721
vt 0.344758 0.843748
vt 0.352356 0.795776
vt 0.374407 0.752500
vt 0.408752 0.718155
vt 0.452029 0.696105
vt 0.500002 0.688508
vt 0.547974 0.696106
vt 0.591251 0.718157
vt 0.625595 0.752502
vt 0.647645 0.795779
vt 0.655242 0.843752
vt 0.636420 0.876851
vt 0.648603 0.107966
vt 0.375000 0.312500
vt 0.625000 0.312500
vt 0.626409 0.064408
vt 0.387500 0.312500
vt 0.591842 0.029841
vt 0.400000 0.312500
vt 0.548284 0.007647
vt 0.412500 0.312500
vt 0.500000 -0.000000
vt 0.425000 0.312500
vt 0.451716 0.007647
vt 0.437500 0.312500
vt 0.408159 0.029841
vt 0.450000 0.312500
vt 0.373591 0.064409
vt 0.462500 0.312500
vt 0.351397 0.107966
vt 0.475000 0.312500
vt 0.343750 0.156250
vt 0.487500 0.312500
vt 0.351397 0.204534
vt 0.500000 0.312500
vt 0.373591 0.248091
vt 0.512500 0.312500
vt 0.408159 0.282659
vt 0.525000 0.312500
vt 0.451716 0.304853
vt 0.537500 0.312500
vt 0.500000 0.312500
vt 0.550000 0.312500
vt 0.548284 0.304853
vt 0.562500 0.312500
vt 0.591841 0.282659
vt 0.575000 0.312500
vt 0.626409 0.248091
vt 0.587500 0.312500
vt 0.648603 0.204534
vt 0.600000 0.312500
vt 0.656250 0.156250
vt 0.612500 0.312500
vt 0.648603 0.892034
vt 0.648603 0.892034
vt 0.626409 0.935591
vt 0.591841 0.970159
vt 0.548284 0.992353
vt 0.500000 1.000000
vt 0.451716 0.992353
vt 0.408159 0.970159
vt 0.373591 0.935591
vt 0.351397 0.892034
vt 0.343750 0.843750
vt 0.351397 0.795466
vt 0.373591 0.751909
vt 0.408159 0.717341
vt 0.451716 0.695147
vt 0.500000 0.687500
vt 0.548284 0.695147
vt 0.591842 0.717341
vt 0.626409 0.751908
vt 0.648603 0.795466
vt 0.656250 0.843750
vt 0.647644 0.891723
vt 0.625594 0.934998
vt 0.591249 0.969343
vt 0.547973 0.991394
vt 0.500001 0.998992
vt 0.452028 0.991394
vt 0.408752 0.969344
vt 0.374407 0.934999
vt 0.352356 0.891723
vt 0.344758 0.843751
vt 0.352356 0.795778
vt 0.374406 0.752502
vt 0.408751 0.718157
vt 0.452027 0.696106
vt 0.499999 0.688508
vt 0.547972 0.696106
vt 0.591248 0.718156
vt 0.625593 0.752501
vt 0.647644 0.795777
vt 0.655242 0.843749
vt 0.626409 0.935591
vt 0.591841 0.970159
vt 0.548284 0.992353
vt 0.500000 1.000000
vt 0.451716 0.992353
vt 0.408159 0.970159
vt 0.373591 0.935591
vt 0.351397 0.892034
vt 0.343750 0.843750
vt 0.351397 0.795466
vt 0.373591 0.751909
vt 0.408159 0.717341
vt 0.451716 0.695147
vt 0.500000 0.687500
vt 0.548284 0.695147
vt 0.591842 0.717341
vt 0.626409 0.751908
vt 0.648603 0.795466
vt 0.656250 0.843750
vn 0.951013 -0.009218 -0.309012
vn 0.876504 -0.387927 -0.285050
vn 0.745519 -0.387928 -0.541954
vn 0.808976 -0.009218 -0.587769
vn 0.358922 -0.926038 -0.116743
vn 0.040608 -0.998739 -0.029521
vn 0.305280 -0.926038 -0.221943
vn 0.047743 -0.998739 -0.015528
vn 0.358922 -0.926038 -0.116743
vn 0.377432 -0.926037 -0.000116
vn 0.876504 -0.387927 -0.285050
vn 0.951013 -0.009218 -0.309012
vn 0.999958 -0.009218 -0.000010
vn 0.921690 -0.387927 -0.000244
vn 0.808976 -0.009218 -0.587769
vn 0.745519 -0.387928 -0.541954
vn 0.541556 -0.387927 -0.745808
vn 0.587751 -0.009218 -0.808989
vn 0.305280 -0.926038 -0.221943
vn 0.029497 -0.998739 -0.040626
vn 0.221754 -0.926038 -0.305416
vn 0.951013 -0.009218 -0.309012
vn 0.808976 -0.009218 -0.587769
vn 0.808958 -0.009559 -0.587789
vn 0.951002 -0.009558 -0.309037
vn 0.587751 -0.009218 -0.808989
vn 0.541556 -0.387927 -0.745808
vn 0.284583 -0.387928 -0.876655
vn 0.308994 -0.009218 -0.951019
vn 0.116521 -0.926038 -0.358994
vn 0.000000 -1.000000 -0.000001
vn -0.000117 -0.926038 -0.377430
vn 0.808976 -0.009218 -0.587769
vn 0.587751 -0.009218 -0.808989
vn 0.587728 -0.009559 -0.809002
vn 0.808958 -0.009559 -0.587789
vn 0.308994 -0.009218 -0.951019
vn 0.284583 -0.387928 -0.876655
vn -0.000245 -0.387926 -0.921691
vn -0.000011 -0.009218 -0.999958
vn 0.587751 -0.009218 -0.808989
vn 0.308994 -0.009218 -0.951019
vn 0.308967 -0.009559 -0.951025
vn 0.587728 -0.009559 -0.809002
vn -0.000011 -0.009218 -0.999958
vn -0.000245 -0.387926 -0.921691
vn -0.285052 -0.387928 -0.876503
vn -0.309013 -0.009218 -0.951013
vn 0.308994 -0.009218 -0.951019
vn -0.000011 -0.009218 -0.999958
vn -0.000038 -0.009559 -0.999954
vn 0.308967 -0.009559 -0.951025
vn -0.000117 -0.926038 -0.377430
vn 0.000000 -1.000000 -0.000001
vn -0.116745 -0.926037 -0.358924
vn -0.309013 -0.009218 -0.951013
vn -0.285052 -0.387928 -0.876503
vn -0.541955 -0.387928 -0.745518
vn -0.587769 -0.009218 -0.808976
vn -0.000011 -0.009218 -0.999958
vn -0.309013 -0.009218 -0.951013
vn -0.309038 -0.009559 -0.951002
vn -0.000038 -0.009559 -0.999954
vn -0.116745 -0.926037 -0.358924
vn 0.000000 -1.000000 -0.000001
vn -0.221943 -0.926038 -0.305279
vn -0.587769 -0.009218 -0.808976
vn -0.541955 -0.387928 -0.745518
vn -0.745807 -0.387927 -0.541557
vn -0.808989 -0.009218 -0.587752
vn -0.309013 -0.009218 -0.951013
vn -0.587769 -0.009218 -0.808976
vn -0.587789 -0.009559 -0.808958
vn -0.309038 -0.009559 -0.951002
vn -0.221943 -0.926038 -0.305279
vn 0.000000 -1.000000 -0.000001
vn -0.305418 -0.926038 -0.221752
vn -0.808989 -0.009218 -0.587752
vn -0.745807 -0.387927 -0.541557
vn -0.876655 -0.387928 -0.284584
vn -0.951020 -0.009218 -0.308993
vn -0.587769 -0.009218 -0.808976
vn -0.808989 -0.009218 -0.587752
vn -0.809002 -0.009559 -0.587728
vn -0.587789 -0.009559 -0.808958
vn -0.305418 -0.926038 -0.221752
vn 0.000000 -1.000000 -0.000001
vn -0.358995 -0.926037 -0.116522
vn -0.951020 -0.009218 -0.308993
vn -0.876655 -0.387928 -0.284584
vn -0.921690 -0.387927 0.000245
vn -0.999958 -0.009218 0.000011
vn -0.808989 -0.009218 -0.587752
vn -0.951020 -0.009218 -0.308993
vn -0.951025 -0.009559 -0.308967
vn -0.809002 -0.009559 -0.587728
vn -0.358995 -0.926037 -0.116522
vn 0.000000 -1.000000 -0.000001
vn -0.377431 -0.926038 0.000116
vn -0.999958 -0.009218 0.000011
vn -0.921690 -0.387927 0.000245
vn -0.876504 -0.387927 0.285051
vn -0.951013 -0.009218 0.309014
vn -0.951020 -0.009218 -0.308993
vn -0.999958 -0.009218 0.000011
vn -0.999954 -0.009559 0.000038
vn -0.951025 -0.009559 -0.308967
vn -0.377431 -0.926038 0.000116
vn 0.000000 -1.000000 -0.000001
vn -0.358922 -0.926038 0.116743
vn -0.951013 -0.009218 0.309014
vn -0.876504 -0.387927 0.285051
vn -0.745519 -0.387927 0.541954
vn -0.808977 -0.009218 0.587768
vn -0.999958 -0.009218 0.000011
vn -0.951013 -0.009218 0.309014
vn -0.951001 -0.009559 0.309039
vn -0.999954 -0.009559 0.000038
vn -0.358922 -0.926038 0.116743
vn 0.000000 -1.000000 -0.000001
vn -0.305280 -0.926038 0.221943
vn -0.808977 -0.009218 0.587768
vn -0.745519 -0.387927 0.541954
vn -0.541556 -0.387927 0.745808
vn -0.587752 -0.009218 0.808989
vn -0.951013 -0.009218 0.309014
vn -0.808977 -0.009218 0.587768
vn -0.808958 -0.009559 0.587789
vn -0.951001 -0.009559 0.309039
vn -0.305280 -0.926038 0.221943
vn 0.000000 -1.000000 -0.000001
vn -0.221754 -0.926038 0.305416
vn -0.587752 -0.009218 0.808989
vn -0.541556 -0.387927 0.745808
vn -0.284584 -0.387927 0.876655
vn -0.308995 -0.009218 0.951019
vn -0.808977 -0.009218 0.587768
vn -0.587752 -0.009218 0.808989
vn -0.587728 -0.009559 0.809002
vn -0.808958 -0.009559 0.587789
vn -0.221754 -0.926038 0.305416
vn 0.000000 -1.000000 -0.000001
vn -0.116521 -0.926038 0.358994
vn -0.308995 -0.009218 0.951019
vn -0.284584 -0.387927 0.876655
vn 0.000245 -0.387927 0.921690
vn 0.000011 -0.009218 0.999958
vn -0.587752 -0.009218 0.808989
vn -0.308995 -0.009218 0.951019
vn -0.308968 -0.009559 0.951024
vn -0.587728 -0.009559 0.809002
vn -0.116521 -0.926038 0.358994
vn 0.000000 -1.000000 -0.000001
vn 0.000117 -0.926038 0.377429
vn 0.000011 -0.009218 0.999958
vn 0.000245 -0.387927 0.921690
vn 0.285051 -0.387927 0.876504
vn 0.309014 -0.009218 0.951013
vn -0.308995 -0.009218 0.951019
vn 0.000011 -0.009218 0.999958
vn 0.000038 -0.009559 0.999954
vn -0.308968 -0.009559 0.951024
vn 0.000117 -0.926038 0.377429
vn 0.000000 -1.000000 -0.000001
vn 0.116744 -0.926037 0.358923
vn 0.309014 -0.009218 0.951013
vn 0.285051 -0.387927 0.876504
vn 0.541954 -0.387928 0.745519
vn 0.587769 -0.009218 0.808976
vn 0.000011 -0.009218 0.999958
vn 0.309014 -0.009218 0.951013
vn 0.309039 -0.009559 0.951001
vn 0.000038 -0.009559 0.999954
vn 0.116744 -0.926037 0.358923
vn 0.000000 -1.000000 -0.000001
vn 0.221943 -0.926038 0.305279
vn 0.587769 -0.009218 0.808976
vn 0.541954 -0.387928 0.745519
vn 0.745807 -0.387927 0.541558
vn 0.808989 -0.009218 0.587751
vn 0.309014 -0.009218 0.951013
vn 0.587769 -0.009218 0.808976
vn 0.587789 -0.009559 0.808958
vn 0.309039 -0.009559 0.951001
vn 0.221943 -0.926038 0.305279
vn 0.000000 -1.000000 -0.000001
vn 0.305417 -0.926038 0.221752
vn 0.808989 -0.009218 0.587751
vn 0.745807 -0.387927 0.541558
vn 0.876655 -0.387927 0.284585
vn 0.951020 -0.009218 0.308993
vn 0.587769 -0.009218 0.808976
vn 0.808989 -0.009218 0.587751
vn 0.809003 -0.009559 0.587727
vn 0.587789 -0.009559 0.808958
vn 0.305417 -0.926038 0.221752
vn 0.000000 -1.000000 -0.000001
vn 0.358995 -0.926037 0.116522
vn 0.951020 -0.009218 0.308993
vn 0.876655 -0.387927 0.284585
vn 0.921690 -0.387927 -0.000244
vn 0.999958 -0.009218 -0.000010
vn 0.808989 -0.009218 0.587751
vn 0.951020 -0.009218 0.308993
vn 0.951025 -0.009559 0.308967
vn 0.809003 -0.009559 0.587727
vn 0.358995 -0.926037 0.116522
vn 0.000000 -1.000000 -0.000001
vn 0.377432 -0.926037 -0.000116
vn 0.951020 -0.009218 0.308993
vn 0.999958 -0.009218 -0.000010
vn 0.999954 -0.009559 -0.000038
vn 0.951025 -0.009559 0.308967
vn 0.999954 -0.009559 -0.000038
vn 0.999958 -0.009218 -0.000010
vn 0.951013 -0.009218 -0.309012
vn 0.951002 -0.009558 -0.309037
vn 0.082347 -0.996604 -0.000025
vn 0.999954 -0.009559 -0.000038
vn 0.951002 -0.009558 -0.309037
vn 0.078362 -0.996599 -0.025502
vn 0.066613 -0.996603 -0.048426
vn 0.078362 -0.996599 -0.025502
vn 0.951002 -0.009558 -0.309037
vn 0.808958 -0.009559 -0.587789
vn 0.048384 -0.996603 -0.066637
vn 0.066613 -0.996603 -0.048426
vn 0.808958 -0.009559 -0.587789
vn 0.587728 -0.009559 -0.809002
vn 0.025424 -0.996604 -0.078326
vn 0.048384 -0.996603 -0.066637
vn 0.587728 -0.009559 -0.809002
vn 0.308967 -0.009559 -0.951025
vn -0.000025 -0.996604 -0.082349
vn 0.025424 -0.996604 -0.078326
vn 0.308967 -0.009559 -0.951025
vn -0.000038 -0.009559 -0.999954
vn -0.025471 -0.996604 -0.078311
vn -0.000025 -0.996604 -0.082349
vn -0.000038 -0.009559 -0.999954
vn -0.309038 -0.009559 -0.951002
vn -0.048424 -0.996603 -0.066608
vn -0.025471 -0.996604 -0.078311
vn -0.309038 -0.009559 -0.951002
vn -0.587789 -0.009559 -0.808958
vn -0.066637 -0.996604 -0.048384
vn -0.048424 -0.996603 -0.066608
vn -0.587789 -0.009559 -0.808958
vn -0.809002 -0.009559 -0.587728
vn -0.078327 -0.996603 -0.025423
vn -0.066637 -0.996604 -0.048384
vn -0.809002 -0.009559 -0.587728
vn -0.951025 -0.009559 -0.308967
vn -0.082349 -0.996604 0.000025
vn -0.078327 -0.996603 -0.025423
vn -0.951025 -0.009559 -0.308967
vn -0.999954 -0.009559 0.000038
vn -0.078311 -0.996604 0.025471
vn -0.082349 -0.996604 0.000025
vn -0.999954 -0.009559 0.000038
vn -0.951001 -0.009559 0.309039
vn -0.066608 -0.996603 0.048424
vn -0.078311 -0.996604 0.025471
vn -0.951001 -0.009559 0.309039
vn -0.808958 -0.009559 0.587789
vn -0.048383 -0.996604 0.066636
vn -0.066608 -0.996603 0.048424
vn -0.808958 -0.009559 0.587789
vn -0.587728 -0.009559 0.809002
vn -0.025424 -0.996603 0.078327
vn -0.048383 -0.996604 0.066636
vn -0.587728 -0.009559 0.809002
vn -0.308968 -0.009559 0.951024
vn 0.000025 -0.996604 0.082349
vn -0.025424 -0.996603 0.078327
vn -0.308968 -0.009559 0.951024
vn 0.000038 -0.009559 0.999954
vn 0.025471 -0.996603 0.078312
vn 0.000025 -0.996604 0.082349
vn 0.000038 -0.009559 0.999954
vn 0.309039 -0.009559 0.951001
vn 0.048423 -0.996604 0.066607
vn 0.025471 -0.996603 0.078312
vn 0.309039 -0.009559 0.951001
vn 0.587789 -0.009559 0.808958
vn 0.066637 -0.996603 0.048384
vn 0.048423 -0.996604 0.066607
vn 0.587789 -0.009559 0.808958
vn 0.809003 -0.009559 0.587727
vn 0.078326 -0.996604 0.025424
vn 0.066637 -0.996603 0.048384
vn 0.809003 -0.009559 0.587727
vn 0.951025 -0.009559 0.308967
vn 0.082347 -0.996604 -0.000025
vn 0.078326 -0.996604 0.025424
vn 0.951025 -0.009559 0.308967
vn 0.999954 -0.009559 -0.000038
vn -0.078643 0.996582 0.025288
vn -0.378585 0.917474 0.122123
vn -0.395992 0.918254 -0.000002
vn -0.081851 0.996645 0.000001
vn -0.885855 0.363365 0.288492
vn -0.886033 0.363654 0.287577
vn -0.931140 0.364662 -0.000077
vn -0.931254 0.364370 -0.000005
vn -0.886033 0.363654 0.287577
vn -0.885855 0.363365 0.288492
vn -0.753599 0.363821 0.547469
vn -0.753516 0.364129 0.547379
vn -0.378585 0.917474 0.122123
vn -0.078643 0.996582 0.025288
vn -0.066195 0.996647 0.048099
vn -0.320159 0.918368 0.232590
vn -0.753516 0.364129 0.547379
vn -0.753599 0.363821 0.547469
vn -0.547433 0.364142 0.753470
vn -0.547431 0.364434 0.753330
vn -0.320159 0.918368 0.232590
vn -0.066195 0.996647 0.048099
vn -0.048118 0.996644 0.066226
vn -0.232740 0.918272 0.320327
vn 0.048471 0.996598 -0.066649
vn -0.048118 0.996644 0.066226
vn -0.066195 0.996647 0.048099
vn 0.066696 0.996598 -0.048410
vn -0.547431 0.364434 0.753330
vn -0.547433 0.364142 0.753470
vn -0.287819 0.363953 0.885832
vn -0.287862 0.364252 0.885695
vn -0.232740 0.918272 0.320327
vn -0.048118 0.996644 0.066226
vn -0.025296 0.996643 0.077867
vn -0.122341 0.918282 0.376552
vn 0.025503 0.996599 -0.078365
vn -0.025296 0.996643 0.077867
vn -0.048118 0.996644 0.066226
vn 0.048471 0.996598 -0.066649
vn -0.287862 0.364252 0.885695
vn -0.287819 0.363953 0.885832
vn -0.000004 0.364356 0.931260
vn -0.000083 0.364642 0.931148
vn -0.122341 0.918282 0.376552
vn -0.025296 0.996643 0.077867
vn 0.000000 0.996643 0.081865
vn -0.000001 0.918240 0.396024
vn 0.000038 0.996598 -0.082411
vn 0.000000 0.996643 0.081865
vn -0.025296 0.996643 0.077867
vn 0.025503 0.996599 -0.078365
vn -0.000083 0.364642 0.931148
vn -0.000004 0.364356 0.931260
vn 0.287763 0.364106 0.885787
vn 0.287684 0.364401 0.885692
vn -0.000001 0.918240 0.396024
vn 0.000000 0.996643 0.081865
vn 0.025290 0.996643 0.077862
vn 0.122342 0.918270 0.376580
vn -0.025430 0.996598 -0.078389
vn 0.025290 0.996643 0.077862
vn 0.000000 0.996643 0.081865
vn 0.000038 0.996598 -0.082411
vn 0.287684 0.364401 0.885692
vn 0.287763 0.364106 0.885787
vn 0.547436 0.364126 0.753476
vn 0.547298 0.364421 0.753434
vn 0.122342 0.918270 0.376580
vn 0.025290 0.996643 0.077862
vn 0.048118 0.996644 0.066226
vn 0.232738 0.918272 0.320327
vn -0.048409 0.996598 -0.066695
vn 0.048118 0.996644 0.066226
vn 0.025290 0.996643 0.077862
vn -0.025430 0.996598 -0.078389
vn 0.547298 0.364421 0.753434
vn 0.547436 0.364126 0.753476
vn 0.753451 0.364185 0.547432
vn 0.753318 0.364476 0.547421
vn 0.232738 0.918272 0.320327
vn 0.048118 0.996644 0.066226
vn 0.066222 0.996644 0.048115
vn 0.320331 0.918271 0.232736
vn -0.066650 0.996598 -0.048470
vn 0.066222 0.996644 0.048115
vn 0.048118 0.996644 0.066226
vn -0.048409 0.996598 -0.066695
vn 0.753318 0.364476 0.547421
vn 0.753451 0.364185 0.547432
vn 0.885749 0.364159 0.287814
vn 0.885619 0.364451 0.287846
vn 0.320331 0.918271 0.232736
vn 0.066222 0.996644 0.048115
vn 0.077838 0.996645 0.025295
vn 0.376534 0.918288 0.122349
vn -0.078365 0.996598 -0.025502
vn 0.077838 0.996645 0.025295
vn 0.066222 0.996644 0.048115
vn -0.066650 0.996598 -0.048470
vn 0.885619 0.364451 0.287846
vn 0.885749 0.364159 0.287814
vn 0.931325 0.364190 0.000028
vn 0.931211 0.364480 0.000090
vn 0.376534 0.918288 0.122349
vn 0.077838 0.996645 0.025295
vn 0.081856 0.996644 0.000006
vn 0.395952 0.918271 0.000010
vn -0.082411 0.996598 -0.000038
vn 0.081856 0.996644 0.000006
vn 0.077838 0.996645 0.025295
vn -0.078365 0.996598 -0.025502
vn 0.931211 0.364480 0.000090
vn 0.931325 0.364190 0.000028
vn 0.885777 0.364129 -0.287764
vn 0.885684 0.364422 -0.287681
vn 0.395952 0.918271 0.000010
vn 0.081856 0.996644 0.000006
vn 0.077848 0.996644 -0.025286
vn 0.376550 0.918283 -0.122335
vn -0.078389 0.996598 0.025430
vn 0.077848 0.996644 -0.025286
vn 0.081856 0.996644 0.000006
vn -0.082411 0.996598 -0.000038
vn 0.885684 0.364422 -0.287681
vn 0.885777 0.364129 -0.287764
vn 0.753504 0.364066 -0.547437
vn 0.753453 0.364363 -0.547310
vn 0.376550 0.918283 -0.122335
vn 0.077848 0.996644 -0.025286
vn 0.066216 0.996645 -0.048107
vn 0.320285 0.918298 -0.232695
vn -0.066694 0.996598 0.048409
vn 0.066216 0.996645 -0.048107
vn 0.077848 0.996644 -0.025286
vn -0.078389 0.996598 0.025430
vn 0.753453 0.364363 -0.547310
vn 0.753504 0.364066 -0.547437
vn 0.547410 0.364202 -0.753458
vn 0.547417 0.364494 -0.753312
vn 0.320285 0.918298 -0.232695
vn 0.066216 0.996645 -0.048107
vn 0.048115 0.996644 -0.066224
vn 0.232747 0.918268 -0.320333
vn -0.048471 0.996598 0.066649
vn 0.048115 0.996644 -0.066224
vn 0.066216 0.996645 -0.048107
vn -0.066694 0.996598 0.048409
vn 0.547417 0.364494 -0.753312
vn 0.547410 0.364202 -0.753458
vn 0.287817 0.364163 -0.885746
vn 0.287845 0.364455 -0.885617
vn 0.232747 0.918268 -0.320333
vn 0.048115 0.996644 -0.066224
vn 0.025294 0.996645 -0.077837
vn 0.122350 0.918287 -0.376535
vn -0.025503 0.996598 0.078366
vn 0.025294 0.996645 -0.077837
vn 0.048115 0.996644 -0.066224
vn -0.048471 0.996598 0.066649
vn 0.287845 0.364455 -0.885617
vn 0.287817 0.364163 -0.885746
vn 0.000005 0.364025 -0.931389
vn 0.000083 0.364322 -0.931273
vn 0.122350 0.918287 -0.376535
vn 0.025294 0.996645 -0.077837
vn -0.000000 0.996645 -0.081846
vn 0.000001 0.918303 -0.395879
vn -0.000038 0.996598 0.082411
vn -0.000000 0.996645 -0.081846
vn 0.025294 0.996645 -0.077837
vn -0.025503 0.996598 0.078366
vn 0.000083 0.364322 -0.931273
vn 0.000005 0.364025 -0.931389
vn -0.287805 0.364159 -0.885752
vn -0.287688 0.364452 -0.885670
vn 0.000001 0.918303 -0.395879
vn -0.000000 0.996645 -0.081846
vn -0.025294 0.996645 -0.077837
vn -0.122346 0.918288 -0.376534
vn 0.025430 0.996598 0.078389
vn -0.025294 0.996645 -0.077837
vn -0.000000 0.996645 -0.081846
vn -0.000038 0.996598 0.082411
vn -0.287688 0.364452 -0.885670
vn -0.287805 0.364159 -0.885752
vn -0.547425 0.364184 -0.753456
vn -0.547288 0.364476 -0.753415
vn -0.122346 0.918288 -0.376534
vn -0.025294 0.996645 -0.077837
vn -0.048115 0.996644 -0.066222
vn -0.232734 0.918271 -0.320333
vn 0.048409 0.996598 0.066694
vn -0.048115 0.996644 -0.066222
vn -0.025294 0.996645 -0.077837
vn 0.025430 0.996598 0.078389
vn -0.547288 0.364476 -0.753415
vn -0.547425 0.364184 -0.753456
vn -0.753451 0.364185 -0.547431
vn -0.753318 0.364476 -0.547421
vn -0.232734 0.918271 -0.320333
vn -0.048115 0.996644 -0.066222
vn -0.066221 0.996644 -0.048114
vn -0.320329 0.918272 -0.232736
vn 0.066650 0.996598 0.048472
vn -0.066221 0.996644 -0.048114
vn -0.048115 0.996644 -0.066222
vn 0.048409 0.996598 0.066694
vn -0.753318 0.364476 -0.547421
vn -0.753451 0.364185 -0.547431
vn -0.885828 0.363966 -0.287816
vn -0.885691 0.364264 -0.287861
vn -0.320329 0.918272 -0.232736
vn -0.066221 0.996644 -0.048114
vn -0.077854 0.996644 -0.025292
vn -0.376522 0.918296 -0.122329
vn 0.078366 0.996598 0.025502
vn -0.077854 0.996644 -0.025292
vn -0.066221 0.996644 -0.048114
vn 0.066650 0.996598 0.048472
vn -0.885691 0.364264 -0.287861
vn -0.885828 0.363966 -0.287816
vn -0.931254 0.364370 -0.000005
vn -0.931140 0.364662 -0.000077
vn -0.376522 0.918296 -0.122329
vn -0.077854 0.996644 -0.025292
vn -0.081851 0.996645 0.000001
vn -0.395992 0.918254 -0.000002
vn -0.078643 0.996582 0.025288
vn -0.081851 0.996645 0.000001
vn 0.082405 0.996599 0.000041
vn 0.078330 0.996603 -0.025427
vn 0.082405 0.996599 0.000041
vn -0.081851 0.996645 0.000001
vn -0.077854 0.996644 -0.025292
vn 0.078366 0.996598 0.025502
vn 0.082347 -0.996604 -0.000025
vn 0.078362 -0.996599 -0.025502
vn 0.359221 -0.925896 -0.116949
vn 0.377770 -0.925899 -0.000117
vn 0.359221 -0.925896 -0.116949
vn 0.078362 -0.996599 -0.025502
vn 0.066613 -0.996603 -0.048426
vn 0.305565 -0.925892 -0.222157
vn 0.305565 -0.925892 -0.222157
vn 0.066613 -0.996603 -0.048426
vn 0.048384 -0.996603 -0.066637
vn 0.221958 -0.925896 -0.305699
vn 0.950414 -0.036919 -0.308788
vn 0.808448 -0.036878 -0.587411
vn 0.808456 0.036917 -0.587398
vn 0.950420 0.036880 -0.308776
vn 0.048471 0.996598 -0.066649
vn 0.066696 0.996598 -0.048410
vn 0.305767 0.925894 -0.221873
vn 0.222235 0.925896 -0.305496
vn 0.305767 0.925894 -0.221873
vn 0.066696 0.996598 -0.048410
vn 0.078330 0.996603 -0.025427
vn 0.359327 0.925896 -0.116622
vn 0.359327 0.925896 -0.116622
vn 0.078330 0.996603 -0.025427
vn 0.082405 0.996599 0.000041
vn 0.377767 0.925901 0.000221
vn 0.221958 -0.925896 -0.305699
vn 0.048384 -0.996603 -0.066637
vn 0.025424 -0.996604 -0.078326
vn 0.116628 -0.925896 -0.359325
vn 0.808448 -0.036878 -0.587411
vn 0.587360 -0.036878 -0.808485
vn 0.587370 0.036920 -0.808476
vn 0.808456 0.036917 -0.587398
vn 0.025503 0.996599 -0.078365
vn 0.048471 0.996598 -0.066649
vn 0.222235 0.925896 -0.305496
vn 0.116954 0.925898 -0.359215
vn 0.116628 -0.925896 -0.359325
vn 0.025424 -0.996604 -0.078326
vn -0.000025 -0.996604 -0.082349
vn -0.000117 -0.925895 -0.377780
vn 0.587360 -0.036878 -0.808485
vn 0.308776 -0.036878 -0.950420
vn 0.308788 0.036921 -0.950414
vn 0.587370 0.036920 -0.808476
vn 0.000038 0.996598 -0.082411
vn 0.025503 0.996599 -0.078365
vn 0.116954 0.925898 -0.359215
vn 0.000226 0.925897 -0.377777
vn -0.000117 -0.925895 -0.377780
vn -0.000025 -0.996604 -0.082349
vn -0.025471 -0.996604 -0.078311
vn -0.116852 -0.925896 -0.359253
vn 0.308776 -0.036878 -0.950420
vn -0.000031 -0.036878 -0.999320
vn -0.000018 0.036921 -0.999318
vn 0.308788 0.036921 -0.950414
vn -0.025430 0.996598 -0.078389
vn 0.000038 0.996598 -0.082411
vn 0.000226 0.925897 -0.377777
vn -0.116525 0.925897 -0.359356
vn -0.116852 -0.925896 -0.359253
vn -0.025471 -0.996604 -0.078311
vn -0.048424 -0.996603 -0.066608
vn -0.222148 -0.925896 -0.305560
vn -0.000031 -0.036878 -0.999320
vn -0.308836 -0.036878 -0.950400
vn -0.308823 0.036920 -0.950403
vn -0.000018 0.036921 -0.999318
vn -0.048409 0.996598 -0.066695
vn -0.025430 0.996598 -0.078389
vn -0.116525 0.925897 -0.359356
vn -0.221869 0.925897 -0.305760
vn -0.222148 -0.925896 -0.305560
vn -0.048424 -0.996603 -0.066608
vn -0.066637 -0.996604 -0.048384
vn -0.305700 -0.925895 -0.221958
vn -0.308836 -0.036878 -0.950400
vn -0.587411 -0.036878 -0.808448
vn -0.587399 0.036921 -0.808455
vn -0.308823 0.036920 -0.950403
vn -0.066650 0.996598 -0.048470
vn -0.048409 0.996598 -0.066695
vn -0.221869 0.925897 -0.305760
vn -0.305496 0.925897 -0.222233
vn -0.305700 -0.925895 -0.221958
vn -0.066637 -0.996604 -0.048384
vn -0.078327 -0.996603 -0.025423
vn -0.359325 -0.925896 -0.116627
vn -0.587411 -0.036878 -0.808448
vn -0.808485 -0.036878 -0.587360
vn -0.808476 0.036920 -0.587370
vn -0.587399 0.036921 -0.808455
vn -0.078365 0.996598 -0.025502
vn -0.066650 0.996598 -0.048470
vn -0.305496 0.925897 -0.222233
vn -0.359217 0.925897 -0.116954
vn -0.359325 -0.925896 -0.116627
vn -0.078327 -0.996603 -0.025423
vn -0.082349 -0.996604 0.000025
vn -0.377779 -0.925896 0.000117
vn -0.808485 -0.036878 -0.587360
vn -0.950419 -0.036878 -0.308777
vn -0.950414 0.036920 -0.308789
vn -0.808476 0.036920 -0.587370
vn -0.082411 0.996598 -0.000038
vn -0.078365 0.996598 -0.025502
vn -0.359217 0.925897 -0.116954
vn -0.377777 0.925897 -0.000226
vn -0.377779 -0.925896 0.000117
vn -0.082349 -0.996604 0.000025
vn -0.078311 -0.996604 0.025471
vn -0.359253 -0.925896 0.116851
vn -0.950419 -0.036878 -0.308777
vn -0.999320 -0.036878 0.000031
vn -0.999318 0.036920 0.000017
vn -0.950414 0.036920 -0.308789
vn -0.078389 0.996598 0.025430
vn -0.082411 0.996598 -0.000038
vn -0.377777 0.925897 -0.000226
vn -0.359358 0.925896 0.116526
vn -0.359253 -0.925896 0.116851
vn -0.078311 -0.996604 0.025471
vn -0.066608 -0.996603 0.048424
vn -0.305560 -0.925896 0.222148
vn -0.999320 -0.036878 0.000031
vn -0.950400 -0.036878 0.308836
vn -0.950403 0.036921 0.308823
vn -0.999318 0.036920 0.000017
vn -0.066694 0.996598 0.048409
vn -0.078389 0.996598 0.025430
vn -0.359358 0.925896 0.116526
vn -0.305761 0.925897 0.221869
vn -0.305560 -0.925896 0.222148
vn -0.066608 -0.996603 0.048424
vn -0.048383 -0.996604 0.066636
vn -0.221957 -0.925896 0.305698
vn -0.950400 -0.036878 0.308836
vn -0.808448 -0.036878 0.587411
vn -0.808455 0.036920 0.587399
vn -0.950403 0.036921 0.308823
vn -0.048471 0.996598 0.066649
vn -0.066694 0.996598 0.048409
vn -0.305761 0.925897 0.221869
vn -0.222235 0.925897 0.305495
vn -0.221957 -0.925896 0.305698
vn -0.048383 -0.996604 0.066636
vn -0.025424 -0.996603 0.078327
vn -0.116628 -0.925896 0.359326
vn -0.808448 -0.036878 0.587411
vn -0.587360 -0.036878 0.808485
vn -0.587370 0.036920 0.808476
vn -0.808455 0.036920 0.587399
vn -0.025503 0.996598 0.078366
vn -0.048471 0.996598 0.066649
vn -0.222235 0.925897 0.305495
vn -0.116954 0.925897 0.359217
vn -0.116628 -0.925896 0.359326
vn -0.025424 -0.996603 0.078327
vn 0.000025 -0.996604 0.082349
vn 0.000118 -0.925897 0.377777
vn -0.587360 -0.036878 0.808485
vn -0.308776 -0.036878 0.950420
vn -0.308788 0.036920 0.950414
vn -0.587370 0.036920 0.808476
vn -0.000038 0.996598 0.082411
vn -0.025503 0.996598 0.078366
vn -0.116954 0.925897 0.359217
vn -0.000225 0.925897 0.377777
vn 0.000118 -0.925897 0.377777
vn 0.000025 -0.996604 0.082349
vn 0.025471 -0.996603 0.078312
vn 0.116853 -0.925895 0.359254
vn -0.308776 -0.036878 0.950420
vn 0.000031 -0.036878 0.999320
vn 0.000017 0.036920 0.999318
vn -0.308788 0.036920 0.950414
vn 0.025430 0.996598 0.078389
vn -0.000038 0.996598 0.082411
vn -0.000225 0.925897 0.377777
vn 0.116525 0.925897 0.359357
vn 0.116853 -0.925895 0.359254
vn 0.025471 -0.996603 0.078312
vn 0.048423 -0.996604 0.066607
vn 0.222147 -0.925897 0.305559
vn 0.000031 -0.036878 0.999320
vn 0.308837 -0.036878 0.950400
vn 0.308823 0.036921 0.950403
vn 0.000017 0.036920 0.999318
vn 0.048409 0.996598 0.066694
vn 0.025430 0.996598 0.078389
vn 0.116525 0.925897 0.359357
vn 0.221869 0.925897 0.305760
vn 0.222147 -0.925897 0.305559
vn 0.048423 -0.996604 0.066607
vn 0.066637 -0.996603 0.048384
vn 0.305699 -0.925895 0.221959
vn 0.308837 -0.036878 0.950400
vn 0.587410 -0.036878 0.808449
vn 0.587399 0.036920 0.808455
vn 0.308823 0.036921 0.950403
vn 0.066650 0.996598 0.048472
vn 0.048409 0.996598 0.066694
vn 0.221869 0.925897 0.305760
vn 0.305496 0.925896 0.222235
vn 0.305699 -0.925895 0.221959
vn 0.066637 -0.996603 0.048384
vn 0.078326 -0.996604 0.025424
vn 0.359326 -0.925895 0.116629
vn 0.587410 -0.036878 0.808449
vn 0.808485 -0.036878 0.587360
vn 0.808476 0.036920 0.587370
vn 0.587399 0.036920 0.808455
vn 0.078366 0.996598 0.025502
vn 0.066650 0.996598 0.048472
vn 0.305496 0.925896 0.222235
vn 0.359218 0.925896 0.116954
vn 0.359326 -0.925895 0.116629
vn 0.078326 -0.996604 0.025424
vn 0.082347 -0.996604 -0.000025
vn 0.377770 -0.925899 -0.000117
vn 0.808485 -0.036878 0.587360
vn 0.950419 -0.036878 0.308778
vn 0.950413 0.036920 0.308790
vn 0.808476 0.036920 0.587370
vn 0.082405 0.996599 0.000041
vn 0.078366 0.996598 0.025502
vn 0.359218 0.925896 0.116954
vn 0.377767 0.925901 0.000221
vn 0.950419 -0.036878 0.308778
vn 0.999320 -0.036881 -0.000030
vn 0.999318 0.036921 -0.000017
vn 0.950413 0.036920 0.308790
vn 0.950420 0.036880 -0.308776
vn 0.999318 0.036921 -0.000017
vn 0.999320 -0.036881 -0.000030
vn 0.950414 -0.036919 -0.308788
vn -0.378316 0.917308 0.124187
vn -0.051380 0.998679 -0.000028
vn -0.396294 0.918124 -0.000276
vn -0.049020 0.998667 0.016159
vn -0.378316 0.917308 0.124187
vn -0.320643 0.918191 0.232624
vn -0.041589 0.998679 0.030182
vn -0.320643 0.918191 0.232624
vn -0.233155 0.918130 0.320430
vn 0.000000 1.000000 0.000000
vn -0.233155 0.918130 0.320430
vn -0.122733 0.918139 0.376773
vn 0.000000 1.000000 0.000000
vn -0.122733 0.918139 0.376773
vn -0.000292 0.918102 0.396345
vn 0.000000 1.000000 0.000000
vn -0.000292 0.918102 0.396345
vn 0.122176 0.918130 0.376976
vn 0.000000 1.000000 0.000000
vn 0.122176 0.918130 0.376976
vn 0.232681 0.918132 0.320771
vn 0.000000 1.000000 0.000000
vn 0.232681 0.918132 0.320771
vn 0.320420 0.918131 0.233165
vn 0.000000 1.000000 0.000000
vn 0.320420 0.918131 0.233165
vn 0.376753 0.918148 0.122724
vn 0.000000 1.000000 0.000000
vn 0.376753 0.918148 0.122724
vn 0.396276 0.918131 0.000297
vn 0.000000 1.000000 0.000000
vn 0.396276 0.918131 0.000297
vn 0.376948 0.918143 -0.122164
vn 0.000000 1.000000 0.000000
vn 0.376948 0.918143 -0.122164
vn 0.320717 0.918157 -0.232653
vn 0.000000 1.000000 0.000000
vn 0.320717 0.918157 -0.232653
vn 0.233152 0.918128 -0.320440
vn 0.000000 1.000000 0.000000
vn 0.233152 0.918128 -0.320440
vn 0.122722 0.918148 -0.376753
vn 0.000000 1.000000 0.000000
vn 0.122722 0.918148 -0.376753
vn 0.000292 0.918163 -0.396204
vn 0.000000 1.000000 0.000000
vn 0.000292 0.918163 -0.396204
vn -0.122169 0.918149 -0.376932
vn 0.000000 1.000000 0.000000
vn -0.122169 0.918149 -0.376932
vn -0.232694 0.918132 -0.320760
vn 0.000000 1.000000 0.000000
vn -0.232694 0.918132 -0.320760
vn -0.320419 0.918132 -0.233165
vn 0.000000 1.000000 0.000000
vn -0.320419 0.918132 -0.233165
vn -0.376740 0.918154 -0.122723
vn -0.051380 0.998679 -0.000028
vn -0.376740 0.918154 -0.122723
vn -0.396294 0.918124 -0.000276
vn 0.221754 -0.926038 -0.305416
vn 0.066696 0.996598 -0.048410
vn -0.066195 0.996647 0.048099
s off
g scrap6:pCylinder1 group
usemtl initialShadingGroup
f 1/3/1 124/126/2 125/129/3 2/5/4
f 124/125/5 3/7/6 125/128/7
f 3/7/8 124/125/9 143/164/10
f 124/127/11 1/1/12 21/42/13 143/165/14
f 2/5/15 125/129/16 126/131/17 4/8/18
f 125/128/19 3/7/20 126/130/21
f 1/3/22 2/5/23 23/6/24 22/4/25
f 4/8/26 126/131/27 127/133/28 5/10/29
s 1
f 127/132/30 3/7/31 128/134/32
s off
f 2/5/33 4/8/34 24/9/35 23/6/36
f 5/10/37 127/133/38 128/135/39 6/12/40
f 4/8/41 5/10/42 25/11/43 24/9/44
f 6/12/45 128/135/46 129/137/47 7/14/48
f 5/10/49 6/12/50 26/13/51 25/11/52
f 128/134/53 3/7/54 129/136/55
f 7/14/56 129/137/57 130/139/58 8/16/59
f 6/12/60 7/14/61 27/15/62 26/13/63
f 129/136/64 3/7/65 130/138/66
f 8/16/67 130/139/68 131/141/69 9/18/70
f 7/14/71 8/16/72 28/17/73 27/15/74
f 130/138/75 3/7/76 131/140/77
f 9/18/78 131/141/79 132/143/80 10/20/81
f 8/16/82 9/18/83 29/19/84 28/17/85
f 131/140/86 3/7/87 132/142/88
f 10/20/89 132/143/90 133/145/91 11/22/92
f 9/18/93 10/20/94 30/21/95 29/19/96
f 132/142/97 3/7/98 133/144/99
f 11/22/100 133/145/101 134/147/102 12/24/103
f 10/20/104 11/22/105 31/23/106 30/21/107
f 133/144/108 3/7/109 134/146/110
f 12/24/111 134/147/112 135/149/113 13/26/114
f 11/22/115 12/24/116 32/25/117 31/23/118
f 134/146/119 3/7/120 135/148/121
f 13/26/122 135/149/123 136/151/124 14/28/125
f 12/24/126 13/26/127 33/27/128 32/25/129
f 135/148/130 3/7/131 136/150/132
f 14/28/133 136/151/134 137/153/135 15/30/136
f 13/26/137 14/28/138 34/29/139 33/27/140
f 136/150/141 3/7/142 137/152/143
f 15/30/144 137/153/145 138/155/146 16/32/147
f 14/28/148 15/30/149 35/31/150 34/29/151
f 137/152/152 3/7/153 138/154/154
f 16/32/155 138/155/156 139/157/157 17/34/158
f 15/30/159 16/32/160 36/33/161 35/31/162
f 138/154/163 3/7/164 139/156/165
f 17/34/166 139/157/167 140/159/168 18/36/169
f 16/32/170 17/34/171 37/35/172 36/33/173
f 139/156/174 3/7/175 140/158/176
f 18/36/177 140/159/178 141/161/179 19/38/180
f 17/34/181 18/36/182 38/37/183 37/35/184
f 140/158/185 3/7/186 141/160/187
f 19/38/188 141/161/189 142/163/190 20/40/191
f 18/36/192 19/38/193 39/39/194 38/37/195
f 141/160/196 3/7/197 142/162/198
f 20/40/199 142/163/200 143/165/201 21/42/202
f 19/38/203 20/40/204 40/41/205 39/39/206
f 142/162/207 3/7/208 143/164/209
f 20/40/210 21/42/211 41/43/212 40/41/213
f 41/43/214 21/42/215 1/1/216 22/2/217
f 121/63/218 41/43/219 22/2/220 63/44/221
f 65/45/222 63/44/223 22/4/224 23/6/225
f 70/46/226 65/45/227 23/6/228 24/9/229
f 73/47/230 70/46/231 24/9/232 25/11/233
f 76/48/234 73/47/235 25/11/236 26/13/237
f 79/49/238 76/48/239 26/13/240 27/15/241
f 82/50/242 79/49/243 27/15/244 28/17/245
f 85/51/246 82/50/247 28/17/248 29/19/249
f 88/52/250 85/51/251 29/19/252 30/21/253
f 91/53/254 88/52/255 30/21/256 31/23/257
f 94/54/258 91/53/259 31/23/260 32/25/261
f 97/55/262 94/54/263 32/25/264 33/27/265
f 100/56/266 97/55/267 33/27/268 34/29/269
f 103/57/270 100/56/271 34/29/272 35/31/273
f 106/58/274 103/57/275 35/31/276 36/33/277
f 109/59/278 106/58/279 36/33/280 37/35/281
f 112/60/282 109/59/283 37/35/284 38/37/285
f 115/61/286 112/60/287 38/37/288 39/39/289
f 118/62/290 115/61/291 39/39/292 40/41/293
f 121/63/294 118/62/295 40/41/296 41/43/297
f 43/64/298 144/167/299 163/186/300 62/102/301
f 144/167/302 42/166/303 202/225/304 163/186/305
f 42/166/306 144/167/307 145/168/308 184/207/309
f 144/167/310 43/64/311 44/66/312 145/168/313
f 184/207/314 145/168/315 146/169/316 185/208/317
f 145/168/318 44/66/319 45/68/320 146/169/321
f 71/69/322 45/68/323 44/66/324 66/67/325
f 185/208/326 146/169/327 147/170/328 186/209/329
f 146/169/330 45/68/331 46/70/332 147/170/333
f 74/71/334 46/70/335 45/68/336 71/69/337
f 186/209/338 147/170/339 148/171/340 187/210/341
f 147/170/342 46/70/343 47/72/344 148/171/345
f 77/73/346 47/72/347 46/70/348 74/71/349
f 187/210/350 148/171/351 149/172/352 188/211/353
f 148/171/354 47/72/355 48/74/356 149/172/357
f 80/75/358 48/74/359 47/72/360 77/73/361
f 188/211/362 149/172/363 150/173/364 189/212/365
f 149/172/366 48/74/367 49/76/368 150/173/369
f 83/77/370 49/76/371 48/74/372 80/75/373
f 189/212/374 150/173/375 151/174/376 190/213/377
f 150/173/378 49/76/379 50/78/380 151/174/381
f 86/79/382 50/78/383 49/76/384 83/77/385
f 190/213/386 151/174/387 152/175/388 191/214/389
f 151/174/390 50/78/391 51/80/392 152/175/393
f 89/81/394 51/80/395 50/78/396 86/79/397
f 191/214/398 152/175/399 153/176/400 192/215/401
f 152/175/402 51/80/403 52/82/404 153/176/405
f 92/83/406 52/82/407 51/80/408 89/81/409
f 192/215/410 153/176/411 154/177/412 193/216/413
f 153/176/414 52/82/415 53/84/416 154/177/417
f 95/85/418 53/84/419 52/82/420 92/83/421
f 193/216/422 154/177/423 155/178/424 194/217/425
f 154/177/426 53/84/427 54/86/428 155/178/429
f 98/87/430 54/86/431 53/84/432 95/85/433
f 194/217/434 155/178/435 156/179/436 195/218/437
f 155/178/438 54/86/439 55/88/440 156/179/441
f 101/89/442 55/88/443 54/86/444 98/87/445
f 195/218/446 156/179/447 157/180/448 196/219/449
f 156/179/450 55/88/451 56/90/452 157/180/453
f 104/91/454 56/90/455 55/88/456 101/89/457
f 196/219/458 157/180/459 158/181/460 197/220/461
f 157/180/462 56/90/463 57/92/464 158/181/465
f 107/93/466 57/92/467 56/90/468 104/91/469
f 197/220/470 158/181/471 159/182/472 198/221/473
f 158/181/474 57/92/475 58/94/476 159/182/477
f 110/95/478 58/94/479 57/92/480 107/93/481
f 198/221/482 159/182/483 160/183/484 199/222/485
f 159/182/486 58/94/487 59/96/488 160/183/489
f 113/97/490 59/96/491 58/94/492 110/95/493
f 199/222/494 160/183/495 161/184/496 200/223/497
f 160/183/498 59/96/499 60/98/500 161/184/501
f 116/99/502 60/98/503 59/96/504 113/97/505
f 200/223/506 161/184/507 162/185/508 201/224/509
f 161/184/510 60/98/511 61/100/512 162/185/513
f 119/101/514 61/100/515 60/98/516 116/99/517
f 201/224/518 162/185/519 163/186/520 202/225/521
f 162/185/522 61/100/523 62/102/524 163/186/525
s 2
f 43/64/526 62/102/527 122/103/528 68/65/529
s off
f 122/103/530 62/102/531 61/100/532 119/101/533
f 121/63/534 63/44/535 164/187/536 120/123/537
f 164/187/538 63/44/539 65/45/540 64/105/541
f 64/105/542 65/45/543 70/46/544 69/106/545
f 164/187/546 64/105/547 165/188/548 67/104/549
f 71/69/550 66/67/551 165/188/552 166/189/553
f 165/188/554 66/67/555 68/65/556 67/104/557
f 67/104/558 68/65/559 122/103/560 183/206/561
f 69/106/562 70/46/563 73/47/564 72/107/565
f 64/105/566 69/106/567 166/189/568 165/188/569
f 74/71/570 71/69/571 166/189/572 167/190/573
f 72/107/574 73/47/575 76/48/576 75/108/577
f 69/106/578 72/107/579 167/190/580 166/189/581
f 77/73/582 74/71/583 167/190/584 168/191/585
f 75/108/586 76/48/587 79/49/588 78/109/589
f 72/107/590 75/108/591 168/191/592 167/190/593
f 80/75/594 77/73/595 168/191/596 169/192/597
f 78/109/598 79/49/599 82/50/600 81/110/601
f 75/108/602 78/109/603 169/192/604 168/191/605
f 83/77/606 80/75/607 169/192/608 170/193/609
f 81/110/610 82/50/611 85/51/612 84/111/613
f 78/109/614 81/110/615 170/193/616 169/192/617
f 86/79/618 83/77/619 170/193/620 171/194/621
f 84/111/622 85/51/623 88/52/624 87/112/625
f 81/110/626 84/111/627 171/194/628 170/193/629
f 89/81/630 86/79/631 171/194/632 172/195/633
f 87/112/634 88/52/635 91/53/636 90/113/637
f 84/111/638 87/112/639 172/195/640 171/194/641
f 92/83/642 89/81/643 172/195/644 173/196/645
f 90/113/646 91/53/647 94/54/648 93/114/649
f 87/112/650 90/113/651 173/196/652 172/195/653
f 95/85/654 92/83/655 173/196/656 174/197/657
f 93/114/658 94/54/659 97/55/660 96/115/661
f 90/113/662 93/114/663 174/197/664 173/196/665
f 98/87/666 95/85/667 174/197/668 175/198/669
f 96/115/670 97/55/671 100/56/672 99/116/673
f 93/114/674 96/115/675 175/198/676 174/197/677
f 101/89/678 98/87/679 175/198/680 176/199/681
f 99/116/682 100/56/683 103/57/684 102/117/685
f 96/115/686 99/116/687 176/199/688 175/198/689
f 104/91/690 101/89/691 176/199/692 177/200/693
f 102/117/694 103/57/695 106/58/696 105/118/697
f 99/116/698 102/117/699 177/200/700 176/199/701
f 107/93/702 104/91/703 177/200/704 178/201/705
f 105/118/706 106/58/707 109/59/708 108/119/709
f 102/117/710 105/118/711 178/201/712 177/200/713
f 110/95/714 107/93/715 178/201/716 179/202/717
f 108/119/718 109/59/719 112/60/720 111/120/721
f 105/118/722 108/119/723 179/202/724 178/201/725
f 113/97/726 110/95/727 179/202/728 180/203/729
f 111/120/730 112/60/731 115/61/732 114/121/733
f 108/119/734 111/120/735 180/203/736 179/202/737
f 116/99/738 113/97/739 180/203/740 181/204/741
f 114/121/742 115/61/743 118/62/744 117/122/745
f 111/120/746 114/121/747 181/204/748 180/203/749
f 119/101/750 116/99/751 181/204/752 182/205/753
f 117/122/754 118/62/755 121/63/756 120/123/757
f 114/121/758 117/122/759 182/205/760 181/204/761
f 122/103/762 119/101/763 182/205/764 183/206/765
f 117/122/766 120/123/767 183/206/768 182/205/769
f 67/104/770 183/206/771 120/123/772 164/187/773
f 42/166/774 123/124/775 202/225/776
f 123/124/777 42/166/778 184/207/779
f 123/124/780 184/207/781 185/208/782
f 123/124/783 185/208/784 186/209/785
f 123/124/786 186/209/787 187/210/788
f 123/124/789 187/210/790 188/211/791
f 123/124/792 188/211/793 189/212/794
f 123/124/795 189/212/796 190/213/797
f 123/124/798 190/213/799 191/214/800
f 123/124/801 191/214/802 192/215/803
f 123/124/804 192/215/805 193/216/806
f 123/124/807 193/216/808 194/217/809
f 123/124/810 194/217/811 195/218/812
f 123/124/813 195/218/814 196/219/815
f 123/124/816 196/219/817 197/220/818
f 123/124/819 197/220/820 198/221/821
f 123/124/822 198/221/823 199/222/824
f 123/124/825 199/222/826 200/223/827
f 123/124/828 200/223/829 201/224/830
f 123/124/831 201/224/832 202/225/833
s 1
f 127/132/30 126/130/834 3/7/31
s 2
f 43/64/526 68/65/529 66/67/835 44/66/836
