%YAML 1.1
%TAG !u! tag:unity3d.com,2011:
--- !u!1 &8569117077256583803
GameObject:
  m_ObjectHideFlags: 0
  m_CorrespondingSourceObject: {fileID: 0}
  m_PrefabInstance: {fileID: 0}
  m_PrefabAsset: {fileID: 0}
  serializedVersion: 6
  m_Component:
  - component: {fileID: 8569117077256480347}
  - component: {fileID: 8569117077257807483}
  - component: {fileID: 8569117077258773691}
  - component: {fileID: 6947182845305889100}
  m_Layer: 0
  m_Name: Lanchonete
  m_TagString: Untagged
  m_Icon: {fileID: 0}
  m_NavMeshLayer: 0
  m_StaticEditorFlags: 0
  m_IsActive: 1
--- !u!4 &8569117077256480347
Transform:
  m_ObjectHideFlags: 0
  m_CorrespondingSourceObject: {fileID: 0}
  m_PrefabInstance: {fileID: 0}
  m_PrefabAsset: {fileID: 0}
  m_GameObject: {fileID: 8569117077256583803}
  m_LocalRotation: {x: 0, y: -0, z: -0, w: 1}
  m_LocalPosition: {x: 0, y: 0, z: 0}
  m_LocalScale: {x: 1, y: 1, z: 1}
  m_Children: []
  m_Father: {fileID: 0}
  m_RootOrder: 0
  m_LocalEulerAnglesHint: {x: 0, y: 0, z: 0}
--- !u!33 &8569117077257807483
MeshFilter:
  m_ObjectHideFlags: 0
  m_CorrespondingSourceObject: {fileID: 0}
  m_PrefabInstance: {fileID: 0}
  m_PrefabAsset: {fileID: 0}
  m_GameObject: {fileID: 8569117077256583803}
  m_Mesh: {fileID: 4300000, guid: 4672e23ba447c5d4e98b34d175b47970, type: 3}
--- !u!23 &8569117077258773691
MeshRenderer:
  m_ObjectHideFlags: 0
  m_CorrespondingSourceObject: {fileID: 0}
  m_PrefabInstance: {fileID: 0}
  m_PrefabAsset: {fileID: 0}
  m_GameObject: {fileID: 8569117077256583803}
  m_Enabled: 1
  m_CastShadows: 1
  m_ReceiveShadows: 1
  m_DynamicOccludee: 1
  m_MotionVectors: 1
  m_LightProbeUsage: 1
  m_ReflectionProbeUsage: 1
  m_RenderingLayerMask: 1
  m_RendererPriority: 0
  m_Materials:
  - {fileID: 2100000, guid: 1fa2f188a1a10bf43a70154a7a4e7484, type: 2}
  - {fileID: 2100000, guid: b97ce162ce53d51478ec16af97d0afa3, type: 2}
  - {fileID: 2100000, guid: e64a671b63e829a46b4b578849f6e18e, type: 2}
  - {fileID: 2100000, guid: 39fe0b137bd8ffd42b615255aaef20bd, type: 2}
  - {fileID: 2100000, guid: cc1aa8a15be7061408cc50c9a4ad47b7, type: 2}
  - {fileID: 2100000, guid: 38ff2b2a7d02f17478448861cd06ffdd, type: 2}
  - {fileID: 2100000, guid: 0dcc26bb8c1e88d49ae2d61b47b443c4, type: 2}
  - {fileID: 2100000, guid: 271295458c1ef43488f6252c755d067d, type: 2}
  - {fileID: 2100000, guid: 5b1e119e26c4cad4fa2789a03223cc65, type: 2}
  - {fileID: 2100000, guid: 9a06a22752024af4387fa2b7d0249e94, type: 2}
  - {fileID: 2100000, guid: b2fe1c36697750e4d9fddc01594e2ad5, type: 2}
  - {fileID: 2100000, guid: 8cdc6cbbe4157654fa055c10b95d59d6, type: 2}
  - {fileID: 2100000, guid: 8e6acb8109469ca4c8cf64258d0b9198, type: 2}
  - {fileID: 2100000, guid: 75530344acbd29f41b9b016f6482648f, type: 2}
  - {fileID: 2100000, guid: 1ad9d4b7480b35c4c88c5c0713077b56, type: 2}
  - {fileID: 2100000, guid: e06a25d87595b134eba80b16194d5f3f, type: 2}
  - {fileID: 2100000, guid: d703f6094c18d854d859c27212da011a, type: 2}
  - {fileID: 2100000, guid: c7a94251ec480084ca718c770c28cc1c, type: 2}
  m_StaticBatchInfo:
    firstSubMesh: 0
    subMeshCount: 0
  m_StaticBatchRoot: {fileID: 0}
  m_ProbeAnchor: {fileID: 0}
  m_LightProbeVolumeOverride: {fileID: 0}
  m_ScaleInLightmap: 1
  m_ReceiveGI: 1
  m_PreserveUVs: 0
  m_IgnoreNormalsForChartDetection: 0
  m_ImportantGI: 0
  m_StitchLightmapSeams: 1
  m_SelectedEditorRenderState: 3
  m_MinimumChartSize: 4
  m_AutoUVMaxDistance: 0.5
  m_AutoUVMaxAngle: 89
  m_LightmapParameters: {fileID: 0}
  m_SortingLayerID: 0
  m_SortingLayer: 0
  m_SortingOrder: 0
--- !u!64 &6947182845305889100
MeshCollider:
  m_ObjectHideFlags: 0
  m_CorrespondingSourceObject: {fileID: 0}
  m_PrefabInstance: {fileID: 0}
  m_PrefabAsset: {fileID: 0}
  m_GameObject: {fileID: 8569117077256583803}
  m_Material: {fileID: 0}
  m_IsTrigger: 0
  m_Enabled: 1
  serializedVersion: 3
  m_Convex: 0
  m_CookingOptions: 14
  m_Mesh: {fileID: 4300000, guid: 4672e23ba447c5d4e98b34d175b47970, type: 3}
